<?xml version="1.0" encoding="utf-8"?>
<!-- Generator: Adobe Illustrator 23.1.0, SVG Export Plug-In . SVG Version: 6.00 Build 0)  -->
<svg version="1.1" id="Layer_1" xmlns="http://www.w3.org/2000/svg" xmlns:xlink="http://www.w3.org/1999/xlink" x="0px" y="0px"
	 viewBox="0 0 854.1 914.9" style="enable-background:new 0 0 854.1 914.9;" xml:space="preserve">
<style type="text/css">
	.st0{fill-rule:evenodd;clip-rule:evenodd;fill:#FBC722;}
	.st1{fill-rule:evenodd;clip-rule:evenodd;fill:#1A1A18;}
	.st2{fill-rule:evenodd;clip-rule:evenodd;fill:#D61F05;}
	.st3{fill-rule:evenodd;clip-rule:evenodd;fill:#623827;}
</style>
<path class="st0" d="M521.5,140c1.5,0.9,3,1.7,4.5,2.6c-1-9.5,0.1-19.2,4.5-27c4.3-7.6,11.5-13.3,22.6-15h0
	c7.3-1.1,15.5,0.6,22.6,4.3c20.9,10.9,41.3,21.5,62.9,31.4c21.4,9.7,42.7,18.6,64.1,27.5c15.8,6.5,22.9,16.4,23.9,26.2
	c0.4,4.3-0.3,8.6-2,12.6c-1.7,3.9-4.4,7.5-7.7,10.5c-6.9,6.1-16.9,9.6-28,8.4c-8.1-0.8-7.3-2.9-8.7,7.2c-0.8,7.5,0.5,14.2,3.8,19.6
	c3.3,5.4,8.8,9.6,16.5,12.3c3.7,1.3,7.8,2.2,12.4,2.8c-0.1-0.5-0.2-1-0.3-1.5c-1.4-7-0.6-14.3,3.4-21.3c0.9-1.6,2-3,3.1-4.3
	c4.6-5.1,10.9-8,17.4-8.8c6.5-0.8,13.3,0.4,18.9,3.7c1.6,0.9,3,2,4.4,3.2c5.6,5.1,11.5,10.5,17.4,16c15.4,14.2,30.8,28.9,47.4,41.5
	c6.1,4.6,13.3,8.5,18.4,14.2c8.7,9.7,12.5,24,10.9,36.8c-0.8,6.3-2.9,12.4-6.3,17.5c-4.1,6.1-9.7,10.5-17.3,13.1
	c-3.7,1.3-2,1.9-0.2,4.4c8.6,10.2,8.8,31.1-5.9,36.5c-9.2,3.3-21.3,1-25.4-7.8c-2.2-4.7-1.9-10.9,0.5-15.5
	c-11.4,1.6-15.2,14.1-17.9,23.9c-5,18.1-7.3,42.7-7.3,69.3v137.4c0,13-0.2,31.7,12.9,39c5.3,3,12.3,5,20.1,7.8
	c1.1,0.4,2,1.9,1.9,3.1c-4.3,50.4-45.9,103.8-83.8,135c-8.5,7-22.4,18.1-34.4,20.6c-7.8,1.6-15.5-0.9-21.1-6.6
	c-3.9-4.1-6.5-9.5-7.2-15c-2.9,1.2-6,2.3-8.8,3.8l-0.3,0.2c0.5,5.3,0.4,10.7-0.5,16.1c-0.7,4-1.7,7.9-3.2,11.9
	c-6.1,16.1-17.7,27.4-31.8,35.5c-25.4,14.7-59.4,21.1-88.5,21.3c-24.5,0.2-53.1-2.9-74-16.8c-2.5,14.3-9.1,25-19.2,34.5
	c-4.4,4.2-4.4,3.5-9.3,0.1c-11.5-8.1-21.7-20.7-22-34.7c-9,6-19.2,10.1-31.7,12.9c-12.6,2.7-27.3,4.2-42.5,4.1
	c-14.1-0.1-28.7-1.6-42.5-4.8c-16-3.7-30.7-8.8-43-17c-12.4-8.3-22.3-19.7-28.4-35.7c-1.3-3.3-2.3-6.8-2.9-10.3l-11.8-12.9
	c-1.5,2.3-3.5,4.4-6.1,6.4c-10.2,8.2-20.1,5.4-31.5,1.6c-29.3-9.7-50.5-25.3-68-49.9c-20.8-28.4-33.6-58.7-38.4-91
	c-0.5-3.4-0.4-3.8,2.8-5.2C72.4,670,80,665.8,84,658.7c4.3-7.5,4.5-22.7,4.5-37V484.2c0-26.6-2.3-51.2-7.3-69.3
	c-2.9-10.5-6.7-18.8-11.5-23.8c-2.9-3-5.6-4.6-9.4-5.1c1.6,7.3-1.9,15.9-8.1,20c-5.5,3.6-13.2,4.3-18.9,0.7
	c-6.7-4.1-8.3-12.6-6.8-19.8c0.7-3.4,1.9-6.6,3.8-9.4c3.2-4.8,1.7-4.6-3-6.1c-5.9-1.8-11-4.8-15.4-8.5
	c-17.2-14.6-15.1-44.9,2.1-58.3c6.3-4.9,12.9-9.9,19.4-15c8.5-6.7,17-13.5,25.4-20.4c15-12.4,29.7-25.2,43.7-37.8
	c1.4-1.3,3-2.4,4.6-3.4c5.5-3.2,12-4.5,18.2-3.8c6.3,0.7,12.4,3.4,16.8,8.4c1.2,1.3,2.2,2.7,3.1,4.3c4.1,7.2,5.3,14.5,4.1,21.6
	c12.9-7.2,24.8-17.7,28.3-32.2c0.8-3.4-1.9-5.2-5.8-4.4c-12.8,2.6-22.8,0-29.6-5.4c-3.7-2.9-6.4-6.7-8.1-10.9
	c-1.6-4.1-2.3-8.7-1.8-13.4c1.2-11.4,9-23.2,24.5-30.1c9-4,18.2-8,27.4-12.1c22-9.7,44.2-19.8,66.3-29.6
	c12.3-5.5,25.2-12.5,37.1-17.7c5.7-2.5,12.1-3,17.9-2.1h0c11.1,1.7,18.3,7.3,22.6,15c4.1,7.4,5.4,16.5,4.6,25.5
	c1-0.7,3.1-2.1,4.1-2.7c1.8-1.3,1.7-1.6,1.5-4.5c-1.1-11-2.5-22.2-4.5-33.5c-2-11.3-4.5-22.7-7.8-33.8c-0.3-0.9-1-1.2-2.2-0.7
	c-1.1,0.4-2.1,0.8-3.2,1.1c-4.4,1.4-4.7,0.5-5.9-3.4c-1.5-4.8-3.2-10.1-4.8-15.5c-1.8-5.7-3.2-10.7-5.2-17c-0.5-1.5,0.1-2.8,1.5-3.5
	c7-3.5,14.6-6.5,22.4-9.4c7.8-2.8,16.1-5.3,24.5-7.7c2.4-0.7,3.1-0.3,3.6,2.2l1.5,7.3c0.4,1.7,0.8,2,2.6,1.7c1.9-0.3,3.8-0.7,5.8-1
	c9.2-1.6,18.5-3.3,28.5-4.1c2.2-0.2,2.3-0.6,2.2-2.5l-0.9-10.3c-0.2-2.3,0.2-2.9,2.9-3.1c18.4-1.1,37.6-1.2,55.9,0
	c2.9,0.2,2.9,0.4,2.8,3.1l-0.5,7.8c-0.1,2.1,0.1,2.4,2.1,2.5c6.7,0.4,13,0.8,19.2,1.3c6.1,0.5,12.2,1.2,18.4,2
	c2.5,0.3,2.3,0.1,2.9-2.3l1.2-4.7c0.6-2.5,1.1-2.6,3.3-2.2c16.8,2.9,32.2,8,47.1,14.1c2.5,1,2.5,1.6,1.6,3.8l-14.7,35.7
	c-0.8,2-1.3,2.2-3.5,1.7l-3.1-0.7c-2.3-0.5-2.2-0.6-2.9,1.6c-2.9,9.9-4.9,20.1-5.7,30.7c-1.1,13.8-2.3,28.6-2.6,42.4
	C520.5,139.2,520.2,139.2,521.5,140"/>
<path class="st1" d="M438.3,151.6c2.3-2.4,4.1-4.6,6.4-6.8c2.1-2,3.2-3.9,2.4-7.1c-1.4-5.4-7-13-11.2-16.6c-1.3-1.1-1.4-1.1-1.2,1
	c0.8,9.4,1.5,19.4,1,28.8C435.4,154.4,436.2,153.8,438.3,151.6 M411.8,159.7c4.2,1.1,9.1,0.8,14.8,1.2c2.9,0.2,2.7-0.7,1.6-3.1
	c-10-23.1-41.2-33.3-61.7-27.3c7.3,0.5,16.3,2,22.5,4.6c5.8,2.4,10.9,5.7,14.9,10C408,149.3,410.5,154,411.8,159.7z M422.4,140.3
	c2.2,2.1,4.2,4.5,6.1,7c1.8,2.3,1.4,2.2,1.5-0.8c0.3-7.8-0.3-15.7-1-23.5c-0.2-2.3,0-2.4-1.7-0.6c-3,3.3-4.9,6.5-6.8,10.6
	C418.8,136.7,419.6,137.6,422.4,140.3z M435.7,111.1c25.3-0.1,50.3,2.8,75.5,11.2c4.4,1.5,4.1,0.6,3.9,5.1c-0.1,2.1-0.2,4.1-0.3,6.2
	c-0.1,3.1-0.5,2.7-3.9,1.3c-19.1-7.9-39.2-8-57.3,2.8c-4.8-12.6-12.7-19.7-18.7-24.6C432.7,111.3,432.8,111.1,435.7,111.1z
	 M460.8,148c6.9-7.9,20-11.9,32.2-12.7c-14.1-2.6-30.5,1.7-41.9,11.4c-4.5,3.7-8.4,7.2-11.6,12.4c-1,1.6-1.2,2,0.9,2.1
	c5.4,0.2,9.4-0.4,14.2-2C456.3,153.5,457.2,152,460.8,148z M472.1,148.4c3.4,0.9,6.5,2.8,9.3,5.6c5.9,6,8.2,16.1,13,27.9
	c6.1,14.8,12.3,18.4,19,20.7c1.1,0.4,4.9,1.6,7.7,2.3c2.5,0.6,2.5,1,1.8-1.5c-2.2-7.2-9.8-14.2-16.9-21.3c-3-3,0.9-7.1,4.2-3.6
	c17.9,19.1,31.8,27.9,43.7,32.3c6.8,2.5,13.5,3.5,20.9,3.9c5.6,0.3,4.2-1,0.3-3.1c-1.5-0.8-3.1-1.6-4.5-2.4
	c-21.8-11.5-38.3-20-56.9-43.7c-3-3.8,1.5-7.2,4.6-3.7c18,20.6,37.7,38.1,65.9,42.4c6.9,1.1,13.9,2.1,21.5,5.8
	c2.5,1.2,4.9,2.5,7.1,3.7c6.9,3.8,11.9,6.5,21.5,4.6c-13.9-5.5-27.5-12-40.7-19.6c-15.8-9.1-31.2-19.9-46-33
	c-14.2-12.5-25.8-22.7-44.1-24.6c-11.8-1.3-23.3,0.1-31.7,4.8C468.9,147.4,469.6,147.7,472.1,148.4z M405,162.6
	c-7.4-1.7-4.6,4.4-0.4,6.4c10,4.8,42.3,6,52.5,1.1c2.2-1.1,4.1-3,4.2-4.5c0.1-1.2-0.8-2.6-3.8-2.1C442.5,166,419.8,166.1,405,162.6z
	 M576.8,137.6c0.6-9.4-5.9-17.4-15.6-18.1c-9.4-0.8-15.4,5.8-16.3,14.7c-1.1,10.9,5.8,16.2,15.8,16.8
	C568.9,151.4,576.2,147.8,576.8,137.6z M427.3,113.7c-5.1,5.3-9.3,11.3-13.3,19.8c-18.9-12.6-39.6-13-60.5-4.1
	c-2.4,1-4.8,2.1-6.5,2.9c-1.6,0.7-3.2,1.2-3.4-0.3c-0.2-1.2-0.4-2.9-0.5-4.2c-0.2-2.9,0.2-3.2,2.4-3.9c27-8.9,53.9-12.2,80.8-12.8
	C430.6,111,430.1,110.9,427.3,113.7z M259.6,243.8c3,0.4,5.9,0.8,8.8,1.2c12.9,1.7,24.5,2.6,37.1,2.2c27.7-0.9,59-4.8,81.2-17.9
	c17.3-10.2,30.2-27.9,41.2-49.6c1.2-2.3,0.6-1.6-1.7-1.7c-5.8-0.3-11.3-1-15.9-1.9c-0.6-0.1-0.6-0.1-0.9,0.5
	c-4.4,9.1-12.2,16.9-20.4,22.6c-2,1.4-2.2,1.5,0.6,1.5c11.3,0.3,19.5-9.9,23.3-17.3c2-3.9,6.8-2.4,4.9,2.2c-1.8,4.4-4,7.6-7.5,11.7
	l0,0.1c0,0-0.1,0.1-0.1,0.1c-4,4.6-8.9,9-14.6,13.1c-14.8,10.7-34.7,19.4-55.1,24.5C313.5,241.8,286.7,242.2,259.6,243.8z
	 M332.8,213.4c14.2-4.5,21.8-9.2,29.8-31.6c4.1-11.6,11-24.8,21.8-31.4c3.5-2.1,7.2-3.3,11-3.7c1.9-0.2,1.8-1-0.3-2.5
	c-8.2-5.6-18.8-8.4-28.5-8.8c-11.1-0.4-20.4,3.2-33,12.1c-6.2,4.4-12,9.1-17.1,13.7C302,174,286,185.7,269.6,195.8
	c-13.8,8.5-27.9,16-41.7,22.1c-6.5,2.9,2.4,2.4,4.9,2.3c6.8-0.3,12.4-3.2,18.7-6.5c2.2-1.2,4.6-2.4,7.1-3.6
	c7.2-3.4,14.7-5.6,22.2-7.8c26.5-7.7,32.9-15.1,51.4-34.6c3.9-4.1,10.7-9.1,14.4-13.6c2.9-3.5,7.5,0,4.5,3.7
	c-3.8,4.7-10.6,9.7-14.5,13.8c-8.5,9.1-13.4,15.5-23.3,23.5c-9.5,7.6-19.4,14.6-30.3,21.6c-4,2.6-7.2,3.3-0.3,2.6
	c3.2-0.3,6.2-0.8,9.2-1.5c7.4-1.7,14.8-4.9,24-10.8c14.6-9.4,26.2-24.4,37.6-37.4c2.5-2.9,7.7,0.2,4.5,3.8
	C345,188,334.1,202,331.3,212.1C330.7,213.9,330.7,214,332.8,213.4z M294,150.4c4,0.7,8.1,0.3,12-1.2h0c3.6-1.3,6.1-3.5,7.7-5.9
	c1.9-2.9,2.6-6.2,2.3-9.1c-0.5-5.1-2.6-8.9-5.5-11.5c-7.8-6.8-20.5-4.6-26,4c-3.6,5.5-3.9,14.8,0.8,19.8
	C287.2,148.5,289.6,149.6,294,150.4z M168.3,783.4c8.2-7.7,20.8-8.6,30.2,0.1c5.5,5.1,8.1,15.3,6.5,22.9c-0.3,1.3-0.7,1.4,0.2,2.3
	c1.2,1.1,2.5,2.4,3.6,3.8c2.3,2.8,2.4,1.8,2.1,0c-0.8-4.9-1.4-9.9-2.5-14.7c-2.6-12-7.7-22-23.3-25.7c-3.4-0.8-6.5-0.8-9.2-0.1
	c-10.9,2.7-16,15.4-15.6,25.6C161.8,792.2,164.1,787.3,168.3,783.4z M642.4,778c-1.4-4.9-2.3-10.2-1.8-14.8
	c0.7-6.7,3.1-13.3,7.3-19.1c1.7-2.4,2.6-4.9,2.8-7.5c0.2-2.8-0.3-5.8-1.5-8.8c-2.5-6.1-2.7-11.7-1.7-17.4c1.3-7,4.2-13.8,7.1-20.3
	c0.8-1.8,1-2,2.2,0.2c1.6,3,3,6.2,4.9,9.1c2.7,4.1,3,4.3,2.9-0.8c-0.3-11.9-2.6-22,1-34c1.1-5.6,4-11.1,5.9-16
	c1.8-4.5,3.4-3.9,4.7,0.1c2.4,7.5,4.3,11.5,7,15.3c1.6,2.3,3.2,4.7,4.7,7.9c0.3,0.6,0.5,1.2,0.8,1.8c1.3,3.2,1.3-1.4,1.2-2.5
	c-0.4-6-1.4-11.9-2.9-17.1c-1.1-3.5-2.3-6.5-3.3-9.1c-3.7-9.3-5.9-14.8,0.6-30.2l0.2-0.6c1.4-3.3,1.7-3.4,3.7-0.3l0.3,0.5
	c8,12,20.4,18.8,27.8,29.3c9.9,13.9,11.6,31.2,8,48.3c-3.7,17.4-14.8,34.8-29.4,45c-9.1,6.3-16.8,13-24.1,20.2
	c-7.8,7.7-16.2,17.7-22.6,24l0,0l-2,2.3c-1.1,1.3-1.1,1-0.3,2.9c1.3,2.8,2.7,5.5,3.8,8.4c0.5,1.2,0.8,1.2,1.1-0.1
	c1.6-6,4.4-11.4,8.5-15.7c6.1-6.5,12.7-12.1,19.7-17.6c25.7-20.5,43.8-39.2,56.1-61c13.4-23.7,19.8-51.3,21.6-88.8
	c1.1-23.4,0.8-46.8,0.5-70.3c-0.3-21.6-0.5-43.2,0.3-64.8c0.1-2.7,0.2-5.4,0.3-8.3c0.8-28.4,3.6-67.7,29.5-81.4
	c7.2-3.8,24.8-8.3,32.2-2.8c2.9,2.1,4.8,5.9,4.3,11.4c-0.4,4-6.2,3.9-5.8-0.6c0.4-5.1-4.3-7.7-9.2-5.8c-5.4,2.1-7.4,10-5,14.9
	c3,6,12.4,7,18.4,4.9c8.6-3,9.3-15.2,6.1-23.4c-4-10.3-14.3-13.4-24.7-12.9c-21.1,0.9-36.9,14.8-45.1,33.8c-3.9,9-3.2,11.3-2.9,20.8
	c0.7,18.7-0.2,37.4-4.1,55.8c-1,4.9-5.7,3.5-4.7-1c7.7-36,3.3-72.9-1-109c-0.8-6.5-2.5-15.2-5.2-23.4c-2-6.3-4.6-12.3-7.6-16.8
	c-1.2-1.9-1.8-0.4-2.4,0.8c-1.7,3.7-1.8,8.2-1.4,12.2c0.3,3.6,0.6,6.3-2.6,11.6c-3.8,6.4-3.4,12.1-2.4,19.1c1,7.2-0.8,13.5-3.6,20
	c-1.6,3.7-3.6,8.3-4.4,12.3c-1.3,6.4,2.2,11.7,4.9,17.6c7.4,16.1,11.6,31.8,15.9,47.6c3.1,11.4,6.3,22.9,10.5,34.6
	c1.3,3.5-3.3,5-4.5,1.7c-4.3-12.1-7.5-23.6-10.7-35c-4.9-18.2-9.8-36.1-19.4-54.6c-3.1-6-4.9-13.3-5.9-20.7c-1-7.3-1.3-14.7-1.5-21
	c-0.3-8.8-0.6-19.4-1.5-29.8c-0.8-10.3-2.2-20.1-4.5-27.4c-1.7-5.3-4.5-5.4-4.6,0.4c-0.1,5.7-0.7,10.3-1.7,14.2v0
	c-1.1,4-2.6,7.2-4.7,9.8c-3.3,4.2-4.9,8.7-5.5,13.5c-0.9,8.4,2.1,15.8,2.3,23.9c0.2,9.7-5.3,17.1-5.3,27.1
	c0,19.6,11.9,44.6,24.4,65.5c5.8,9.7,12.1,19.1,18.7,28.2c10.5,14.5,18.1,33.2,21.7,50.7c1,4.7-3.8,5.6-4.8,1
	c-3.5-16.9-10.9-35-20.9-48.9c-6.4-10-15.4-15.4-23.8-24.1c-5.1-5.2-10.5-12-14.5-18.2c-2.9-4.5-5.6-9.5-8.3-15.4
	c-0.5-1.2-1.2-1.1-1.2,0.3c-0.1,6.2,1.2,12.3,2.7,18.3c3,11.4-1.4,23.7,4.3,34.5c4.4,8.4,5,17,5.7,26c0.4,6.4,0.9,13,2.8,19.5
	c5.7,18.8,14.6,29,26.3,39.5c9,8,17.7,15.5,26.5,29.4c2.3,3.7-1.9,6-4.1,2.6c-8.7-13.2-16.8-20.7-25.6-28.4
	c-7.7-6.8-17.5-12.9-24.4-19.9c-1.8-1.8-3.5-4.3-5.2-6.5c-0.7-0.9-0.9-0.6-0.8,0.4c1,8.9,2.5,16.6,5.1,23.4
	c3.5,9.3,9.1,17.2,18,25.2c3.6,3.2,4.4,3.9,4.9,4.3c8.1,7.2,25.5,20,29.7,29.9c1.9,4.6,3.3,11.4,2,16.5c-0.9,3.3-5.6,2.7-4.8-1
	c0.9-4.3,0-9.6-1.7-13.6c-3.7-8.8-21.2-21.7-28.5-28.2c-2.8-2.5-4.5-4-4.9-4.3C690,608.6,684,600,680.2,590
	c-3.8-9.9-5.7-21.2-6.3-35.1c-0.3-6.8,0.8-8.5,3.7-3.1c2.6,4.9,6.5,10.5,10.5,14.7c1.8,1.9,2.1,1.4,0.9-0.8
	c-2.6-4.8-4.8-10.2-6.8-16.5c-2.1-7-2.6-13.9-3.1-20.6c-0.6-8.4-1.1-16.6-5.1-24c-6.2-11.6-1.5-23.6-4.7-35.5
	c-2.8-10.3-4.2-21-1.2-31.5c1.4-4.8,2.9-4.8,4.6-0.3c4.1,10.8,8.2,19.1,12.9,25.7c3.5,4.9,8.9,11.6,13.4,16.4c2.4,2,1.4-0.2,1-1
	c-1.9-3.3-3.8-6.6-5.6-9.9c-10.7-19.5-19.6-41.2-19.4-59.1c0.1-9.6,5.5-17.1,5.2-26.1c-0.2-8.4-3.2-15.8-2.2-24.6
	c0.6-5.6,2.5-11,6.5-16c1.6-2.1,2.9-4.6,3.8-7.9v0c0.9-3.5,1.4-7.7,1.5-13.1c0.2-11.4,10.8-12.4,14.1-1.8c2.4,7.7,3.9,18,4.7,28.5
	c0.8,10.3,1.2,21.1,1.5,30.1c0.2,5.7,0.6,12.2,1.2,18.5c0.4,4.3,1.2,4.6,3.2,0.4c3.1-6.4,5.6-13.2,4.6-20.5
	c-1.1-8.2-1.4-14.8,3-22.3c2.3-4,2.2-6,1.9-8.7c-0.5-5.3-0.1-11.1,2.5-15.9c2.4-4.4,6.7-5.4,9.7-1c3.5,5,6.4,11.8,8.6,18.7
	c2.8,8.6,4.6,17.6,5.4,24.4c1,8.3,1.9,16.6,2.8,24.9c0.3,2.9,1,3.5,2.7,0.5c7.5-13.9,19.4-25,35.2-28.8c5.8-1.4,11.9-1.9,17.8-1.5
	c9.3,0.7,14,3.2,24-1.7c4-2,7.2-5.1,9.5-8.6c2.9-4.3,4.7-9.5,5.4-15c2-16.6-6.2-36.4-23.7-41c-12.1-3.2-22.8,2.5-29.3,11.5
	c-4.8,6.6-7.3,15.2-6.5,23.4c0.7,6.9,3.6,10.9,3.8,3.4c0.1-5.4,0.3-9.8,2.9-14.6c2.9-5.5,7.6-9.7,13.8-11.9
	c7.6-2.7,16.4-1.8,22.9,3.1c7.7,5.8,10.2,15.7,8.3,24.9c-2,9.5-8.7,17.8-17.2,21.5c-11.3,4.9-20.2-0.7-29.1-7.2
	c-24.5-18.7-65.5-62-78.5-81.4c-4-6.9-9.1-4.9-16.9-7.6c-9-3.2-15.5-8.3-19.6-14.8c-5.1-8.2-5.7-16-4.1-25.2c0.9-5.4,1-6.5-3.1-8.1
	c-41.2-16.2-81-34.5-117.7-59.6c-9.5-6.5-16-12-14.7-24.7c1.2-12,9.8-20.8,22.3-20c12.9,0.9,22,11.7,21.2,24.3c-0.1,2-0.1,4,1.4,1
	c1.4-2.9,2-6.4,1.6-9.8c-0.7-7.6-4.7-13.5-10.1-17.4c-6.3-4.6-14.5-6.5-21.6-5.4h0c-9.1,1.4-14.9,5.9-18.4,12
	c-2.8,4.9-4.2,10.9-4.1,17c0.1,10.1,1.2,11.2,6.2,15.2c5.2,4,9.2,6.8,13.7,10.8c14.4,12.7,29.3,23.2,44.7,32.1
	c13.3,7.6,26.8,14,40.7,19.5c2.3,0.9,4.6,1.7,6.8,2.6c2.9,1.2,3.5,3.7,0,5.5c-3.1,1.6-6.2,2.1-8.9,2.6c-11.4,2.4-17.2-0.7-25.3-5.2
	c-2-1.1-4.1-2.2-6.8-3.5c-6.1-2.9-12-4-17.7-4.9c2.1,1.2,4.3,2.4,6.5,3.6c7.2,4.1,5.7,6.5-2.2,6.5c-14.6,0-25.6,0.2-37.6-4.2
	c-5.5-2-11-4-17-8.2c-1.5-1.1-3.2-2.4-5-3.6c-0.5-0.4-0.9-0.1-0.7,0.5c0.5,1.6,0.9,2.6,1.1,3.9c0.3,2.3-1.7,3.8-4.8,2.9
	c-19.4-6.6-26.4-4.5-35.9-27.4c-4.6-11.1-6.5-20.6-11.7-25.8c-2.2-2.2-4.6-3.6-7.4-4c-4-0.5-7.5-0.1-9.2,4.1c1,0.2,1.8,0.5,2.5,0.9
	c0,0,0,0,0,0c2.6,1.6,3.4,4.4,2.9,7.3c-0.6,3-2.8,6.2-6.3,8.3c-0.4,0.2-0.4,0.1-0.2,0.5c5.1,11.5,10.9,19.6,22.9,24.4
	c6.1,2.4,8.1,6.6-0.8,6.9c-4.7,0.2-9.1-0.2-13.5-1.5c1.6,1.3,3.2,2.6,5,3.9c13.9,10,32.8,17.2,53,20c13.3,1.8,27.8,3.9,42.1,5.2
	c20.6,1.8,41.3,3.1,61.3,6.7c7.9,1.4,15.5,3.1,23.1,5.9c20.5,7.5,31.7,19.5,35.7,31.7c2.4,7.3,2.1,14.7-0.3,21.1
	c-2.5,6.5-7.1,12-13.5,15.8c-12.1,7-30.4,7.3-52.1-5.2c-3.8-2.2-2.5-3.3-0.2-4.9c6.7-4.8,11-10.5,12.9-16.4c1.3-3.8,1.6-7.7,1-11.4
	c-0.5-3.7-1.9-7.2-4.1-10.3c-3.1-4.5-7.9-8.1-14-10.1c-13.8-4.6-30-5.4-46.6-5.7c-16.9-0.2-34,0.2-50.8-2.1
	c-23.7-3.4-44.1-9.7-59.7-21.2c-12.9-9.5-22.5-22.5-28.2-40.2c-0.8-2.4-1.9-3.5-3.5-0.5c-10.5,20.2-23.5,36.8-40.5,46.7
	c-22.9,13.5-54.8,17.7-83.2,18.6c-12.2,0.4-24.3-0.1-36.5,0.4c-12.7,0.6-24.6,2.3-33.5,7.5c-4.4,2.6-8.2,6.3-10.6,10.5
	c-1.7,3-2.8,6.3-2.9,9.6c-0.1,3.3,0.6,6.7,2.6,10.1h0c2.3,4,6.4,7.6,12.3,11.3c2.6,1.6,2.8,2.7,0.4,4.8
	c-18.5,16.1-36.4,17.8-48.9,12.8c-8.5-3.4-14.8-10.2-17.8-18.5c-3-8.2-2.7-17.9,1.8-27.2c5.3-11.1,16.7-21.7,35.8-28.4l0,0
	c2.2-0.9,4.5-1.6,6.9-2.1c6.8-1.9,14.6-3.3,23.2-4.2c33.7-3.3,66.9-1.7,100.2-10.1c18.8-4.7,35.5-11.4,49.3-21.3
	c1.1-0.8,0.9-1.3-0.6-1.1c-5.4,0.7-9.1,0.5-14.8-0.2c-3.4-0.4-4.2-2.1-1.1-3.5c7.5-3.2,12.4-6.4,19.1-12.6
	c5.1-4.4,9.2-9.6,12.2-15.6c0.1-0.3,0.1-0.3-0.1-0.4c-4.8-1.8-9.8-7.5-7.8-13c1.5-4.1,5.9-4.9,9.7-4.2c-0.4-1.1-0.9-2.1-1.4-3.1
	c-0.5-0.2-1-0.4-1.5-0.6c-5.4-2-10.5-1.1-15.1,1.7c-9.5,5.8-15.5,18-19.2,28.2c-11.8,32-19.6,32-42.1,37c-3.3,0.5-3.4,0.7-2.7-2.2
	c0.8-3.7,2.4-7.8,4.2-11.2c0.9-1.7,0.6-1.6-0.7-0.6c-2.4,1.9-3.9,2.8-7.4,5c-9.7,6.3-17.6,9.7-25.7,11.5c-6.6,1.5-21.2,3.6-27.6,1.3
	c-2.7-1-2.7-1.5-1-2.9c6.9-4.6,13.3-8.8,20.2-13.3c1.6-1.1,1.2-1.6-0.6-1.1c-0.6,0.2-1.2,0.4-1.8,0.5c-7.2,2.1-14.4,4.2-21.2,7.4
	c-2.4,1.1-4.6,2.3-6.8,3.4c-11.6,6.1-21.7,12.1-38.4,3.2c-5.5-2.9-5.2-3.1,0.1-5.4c16.4-7.1,33.8-15.4,50.5-25.7
	c16-9.9,31.6-21.3,45.8-33.8c2.1-1.9,4.5-3.6,6.7-5.7c7.1-6.9,7.7-7.3,7.8-17.9c0.1-5.4-1.6-10.6-4-14.9c-3.4-6.1-9.3-10.7-18.4-12
	h0c-2.2-0.3-4.6-0.4-6.9-0.1c-15.4,1.6-30.5,17.4-23.2,32.7c0.7,1.5,1.5,0.6,1.4-0.7c-0.4-5.1,0.7-10.3,3.6-14.7
	c7.4-11.5,24.2-14.4,34.8-5.2c4,3.5,6.8,8.5,7.5,15.3c1.5,14.9-13.8,23.1-24.4,30.1c-33.1,22.1-72.1,39.8-108,54.2
	c-4.5,1.8-4.7,2.6-5.2,7c-2.5,21.3-19.4,31.4-35.2,43c-22.1,24.7-46,50.7-72.4,72.7c-10,8.3-20.8,18.8-34.6,18.5
	c-1.4,0-2,0.5-0.8,1.5c1.5,1.2,3,2.3,4.4,3.4c2.2,1.6,2.3,1.2,4.9,0.8c2.4-0.4,5-0.7,7.9-0.7c9.4,0.1,19,3.1,26.2,7.5
	c1.9,1.2,3.6,2.4,5.2,3.8c6.9,6.1,12.5,14.1,16.6,23.4c1.4,3.1,2.6,6.4,3.7,9.7c-0.2-9.3-0.8-18.5-1.4-27.3
	c-0.9-13,0.7-24.5,4.1-34.5c3.8-11.1,9.6-20.5,17.3-27.5c1.9-1.8,3.1-1.9,4,1.1c3.4,10.9,5.2,19.2,2.6,30.7
	c-0.4,1.7-0.3,1.2,0.9,2.5c2.6,2.8,4.2,6.1,4.8,9.9c0.7,4.6,0,9.8-1.3,15c-1.5,6.6-1.8,10.1,4.1,13.8c2.6,1.6,3.4,3.2,4.2-0.3
	c2.9-12.7,5.1-25.1,6.8-37.6c2-14.5,2.2-28.2,3.1-42.7c0.1-2.2-0.3-3.7,3.5-2.1c11.8,5,16.1,14.3,14.2,26.3c-0.3,1.7-0.3,1.5,1,2.5
	c6,4.8,8.9,13.9,9.8,21.3c0.6,4.9,0.6,7.4-0.2,12.9c-2.1,13.2,6.9,12.7,5,26.2c-1.1,7.8-5,17.3-9.2,26.5c-1.7,3.7-3.1,7.5-4.3,11.4
	c-0.7,2.2-0.2,2.6,1,0.5c4.1-7.3,8.4-14.3,11.9-19.7c4.3-6.7,5.4-5.1,5.8,1.8c0.4,5.7,0.4,11.4,0,17.1c-0.5,6.5-1.4,13-4,19.1
	l-0.1,0.2c-1.4,3.3-2.5,6.6-3,10c-0.5,3.4-0.9,6.9,0.1,10.4c1,3.3,2.1,7.2,1.9,11.2c-0.2,4-1.3,8-3.2,11c-2.2,3.4-3.8,7.3-4.9,11.2
	c-1.3,4.8-1.9,9.7-2,14.2c-0.2,8.6-1.7,16.9-3.9,24.9c-0.8,2.8-1.4,4.3,0.5,2.4c2.2-2.2,3.7-4.7,5.7-6.9c3.1-3.6,5.2-6.1,4.8,1
	c-0.3,4.5-1.3,8.8-1.8,13.3c-1.1,10.4,0.3,21.7-3.7,31.5c-2,4.8-5.2,9.1-10,14.6c-4.5,5-10.2,9.3-15.8,13.6c-6.5,5-13.1,10-17.6,16
	c-7.4,9.8-10.3,19.8-10.3,29.8c0,2.6,0,5.5,1.7,1.2c1-2.8,2.4-5.6,4-8.5c6.9-12.3,18.9-26.2,37.4-41.3c2.8-2.3,4.1-0.8,3.9,2.5
	c-0.3,3.9,0.4,7.9,1.2,12.1c1.2,6.5,3.6,13.1-0.6,20.9c-2.1,4-3.7,7.7-4.4,11.4c-1.2,6.1-0.3,3.9,1.7,0.7c3.8-6,8.7-12.1,16-19.5
	c1.9-2,4-1.2,4.2,1.8c0.3,4.2-0.2,7.6,0.2,11v0c0.4,3.3,1.1,6.6,2.5,10.5c2.2,6.4,1.5,14.4,1.1,22c-0.2,3-0.1,2.5,2.2,1.1
	c3.3-2.1,6.5-3.6,10.3-4.8c2-0.6,2.9-0.3,3,2.2c0.1,2.6,0.1,4.7,0,6.5c-0.2,3-0.3,5.3,1.8,9.1c4.2,7.4,3.3,11.8,1.1,17.7
	c-3.1,8.5-1,14,1.5,21.9c2.4,7.6,4.5,13.4,4.3,22.1c0.1,0.9-1.2,7.9-1.6,12.5c-0.3,3-0.4,5.4,1.9,2.1c7.3-10.6,17.8-19.1,30.1-23.7
	c2.9-1.1,5.8-2.2,8.8-2.6c4-0.5,5.6,2.2,2.2,5.3c-4.5,4.1-5,7.8-5,12.2c0,3.7,0.1,7.4-2,11v0c-0.5,0.9-1.1,1.8-1.7,2.7
	c-2.8,4.5-5.1,8.1-1,13.4c5.5,7,5.9,14.2,6.3,21.1c0.3,4.6,0.5,9.1,2.5,12.8c1.2,2.2,2.5,4.3,4,6.4c1.8,2.5,2.2,2.1,1-0.6
	c-10.4-24.2-5.4-56.2,16.7-71.9c3.2-2.2,5.5-0.4,4.7,3c-1.9,8-2.8,13-2.1,21c0.9,10.1,7.7,18,7.7,28.4c0,5.2-0.6,6.7,3.8,9.6
	c0.5,0.3,1-0.1,0.9-0.7c-1-4.1-1.4-8-1.3-11.8c0.2-6.9,1.3-12.5,4.5-18.8c2.3-4.5,4.4-4.3,5.6,0.6c2.3,9,3.9,15.8,12.2,21.6
	c4.2,3,6.1,6.4,8.1,9.9c6.3,11.2,20.3,12.2,27.7,25.9c3.9,7.3,7,8.9,14.6,12.2c17.2,7.5,26.2-1.8,34.5-16.5c-3.2-1.9-5-5.3-4.6-8.6
	c0.6-4.8,5.3-7.6,9.9-7.1c0.8-5.2,1-9.5,0.3-13.5c-0.4-2.1-0.7-4.2-2.1-6.1c-2-2.7-1.7-1.3-2.9,0.7c-1.2,1.9-2.6,3.6-4.1,5
	c-4.6,4.3-10.2,6.3-16.3,6.7c-5.8,0.3-12.2-1-18.4-3.3c-14.6-5.3-29.2-15.9-37-24.1c-4.7-4.9-8.6-9.9-11.8-15.1
	c-3.7-6-6.2-11.7-8.2-18.1c-0.6-1.8-0.8-4.4,1.8-3c11.7,6.1,23.3,11.8,35.5,15.3c23,6.8,66,6.3,78.6,28.3c1.2,2.1,3.2,7,4,9.2
	c10.1-15.3,31.2-23.1,49.9-28.4c13.8-3.9,27.7-7.6,41.6-10.9c15.7-3.8,28.6-8,43-15.7c4.9-2.6,8.6-0.5,4.8,4.6
	c-8.1,10.7-28.1,31.1-50.9,47.1c-10.1,7.1-20,14.1-29.1,16.5c-9.8,2.5-18.4,1.4-24.5-5.4c-1.2-1.4-2.4-3-3.4-4.8
	c-1.8-3.4-0.6-4.4-4.5-2.2c-1.6,0.9-3.3,2.1-4.8,3.6c-3.1,3-5.6,7.3-5.8,13.7c5.2,0.1,10.5,2.5,10.2,8.7c-0.2,3.6-2.5,6.1-5.6,7.6
	c5.9,8.9,13.3,17.5,22.3,20.8c7.4,2.7,16.1,1.4,24.6-3.7c3.3-2,6.4-4.7,9.4-8.5c3.3-4.1,6.4-7.6,9.9-10.8c3.5-3.2,7.4-6,12.3-8.8
	c1.7-1,3.1-2.2,4.2-4.1c1.2-2,2.2-4.8,2.9-8.5c2-9.8,5.6-12.8,9.4-15.9c2.9-2.4,5.4-5,7.9-12c1-2.9,4.2-3.2,5.6,0
	c3.1,7.3,3.8,14,4,21.5c0.1,3.8,0,6.4-0.4,10.6c-0.5,5.8,0.8,3.6,2.9-0.2c0.9-1.7,1.1-3.1,1.6-5.8c0.5-3.1,0.7-6.2,0.8-9.2
	c0.3-7.3,0.6-14.7,6.2-24.2c0.8-1.3,1.5-3.1,2-5.6c0.5-2.6,0.7-6.1,1.1-10.8c0.6-7.1,2-4.4,6-1.2c12.3,10.1,20.4,24.2,20.6,39.3
	c0.1,6.1-1.7,11.9-3.8,17.7c-1,2.8-0.4,3.4,1.4,0.7c7.2-10.5,10.5-20.8,6.4-31.2c-4.8-12.5-4-15.7-2.9-19.7c1-3.7,1.8-8,0.8-11.7
	c-0.9-3.1-1.3-4.5-5.6-7.9c-4.6-3.7-3.6-6,2-5.3c3.9,0.5,5.5,0.5,9.1,1.8c11.3,4.3,20.9,12,28.1,21.5
	C642.2,780.2,642.8,779.6,642.4,778z M37.5,364.4c-6.3-5-15.1-11.7-17.9-19.3c-3.3-9-0.8-19.8,6.8-25.9c4.2-3.4,9.7-5.5,16.2-5.3
	c9.2,0.2,17.9,4.8,22.7,12.5c1.7,2.7,3,3.5,2.2-0.8c-2.1-11.1-12.6-20.3-23.4-22.5c-10.4-2.2-21.9,1.1-29.2,8.8
	C3.1,324.3,2,346.6,15.7,358.6c9.2,8.1,15.2,9.5,21.8,8.8C40.6,367.1,38.9,365.5,37.5,364.4z M39.5,353.3c5.5,0.6,11.3-0.6,15.7-3.1
	c10.7-6.2,10.7-15.7,2.1-24.4c-4-4.1-9.4-6-14.8-6.1c-5-0.1-9.3,1.5-12.4,4c-5.6,4.5-7.5,12.7-5,19.3
	C27.3,349.3,33.1,352.6,39.5,353.3z M572.6,245.5c4.6-0.4,9.7-1,15.1-1.6c3.1-0.4,6.4-0.7,9.6-1.1c-9.5-0.9-19.1-1.6-28.7-2.5
	c-14.1-1.3-28.4-3.4-42.7-5.3c-21.3-2.9-41.4-10.6-56.1-21.2c-6.2-4.5-11-8.8-14.9-13.9c-3.4-4.4-5.8-7.9-7.4-13.3
	c-1.4-4.6,3.1-5.6,4.8-1.9c3.6,7.8,6.8,14.8,16.4,15.1c2.9,0.1,1.9,0,0.1-1.5c-1.2-0.9-2.2-1.9-3.3-2.9c-4.7-4.6-7.9-10.3-11.3-17.9
	c-0.5-1.1-0.5-0.9-1.2-0.8c-4.5,0.8-10,1.3-15.7,1.5c-1.7,0-1.1,0.3-0.7,1.9c4.9,19.6,14.6,33.5,27.9,43.4
	c14.9,11,34.5,17,57.6,20.3C537,245.9,556.7,246.8,572.6,245.5z M630.6,247.1c-8.5-0.8-17.8-0.4-27,0.4c5.8,0.9,11.3,2.1,16.6,3.9
	c7.4,2.5,13.2,6.9,17.1,12.4c2.7,3.9,4.5,8.3,5.1,13c0.7,4.6,0.3,9.5-1.3,14.2c-1.8,5.5-5.4,10.9-10.4,15.7
	c-1.4,1.3-1.5,0.9,0.3,1.8c17.3,8.5,31.7,7.9,41.3,2.3c5.3-3.1,9.1-7.6,11.1-12.9c2-5.3,2.2-11.4,0.2-17.4
	C677.5,261.4,650.8,249,630.6,247.1z M254.6,248.4c-13.2-1.5-26.7-2.2-37.9,0.5c-2,0.6-3.8,1.1-5.7,1.8c0,0-0.1,0-0.1,0.1l0,0
	c-17.7,6.1-28.1,15.7-32.9,25.7c-3.8,7.9-4,16-1.5,22.9c2.4,6.8,7.6,12.4,14.5,15.2c9.5,3.8,22.5,2.6,37.2-7.3
	c2.2-1.5,2.1-2.6,0.3-4.1c-3.7-2.9-6.4-6-8.2-9.3h0c-2.6-4.4-3.6-8.9-3.4-13.3c0.2-4.4,1.5-8.6,3.7-12.4c3-5.2,7.6-9.7,12.8-12.8
	C239.5,251.8,246.8,249.7,254.6,248.4z M521.5,140c1.5,0.9,3,1.7,4.5,2.6c-1-9.5,0.1-19.2,4.5-27c4.3-7.6,11.5-13.3,22.6-15h0
	c7.3-1.1,15.5,0.6,22.6,4.3c20.9,10.9,41.3,21.5,62.9,31.4c21.4,9.7,42.7,18.6,64.1,27.5c15.8,6.5,22.9,16.4,23.9,26.2
	c0.4,4.3-0.3,8.6-2,12.6c-1.7,3.9-4.4,7.5-7.7,10.5c-6.9,6.1-16.9,9.6-28,8.4c-8.1-0.8-7.3-2.9-8.7,7.2c-0.8,7.5,0.5,14.2,3.8,19.6
	c3.3,5.4,8.8,9.6,16.5,12.3c3.7,1.3,7.8,2.2,12.4,2.8c-0.1-0.5-0.2-1-0.3-1.5c-1.4-7-0.6-14.3,3.4-21.3c0.9-1.6,2-3,3.1-4.3
	c4.6-5.1,10.9-8,17.4-8.8c6.5-0.8,13.3,0.4,18.9,3.7c1.6,0.9,3,2,4.4,3.2c5.6,5.1,11.5,10.5,17.4,16c15.4,14.2,30.8,28.9,47.4,41.5
	c6.1,4.6,13.3,8.5,18.4,14.2c8.7,9.7,12.5,24,10.9,36.8c-0.8,6.3-2.9,12.4-6.3,17.5c-4.1,6.1-9.7,10.5-17.3,13.1
	c-3.7,1.3-2,1.9-0.2,4.4c8.6,10.2,8.8,31.1-5.9,36.5c-9.2,3.3-21.3,1-25.4-7.8c-2.2-4.7-1.9-10.9,0.5-15.5
	c-11.4,1.6-15.2,14.1-17.9,23.9c-5,18.1-7.3,42.7-7.3,69.3v137.4c0,13-0.2,31.7,12.9,39c5.3,3,12.3,5,20.1,7.8
	c1.1,0.4,2,1.9,1.9,3.1c-4.3,50.4-45.9,103.8-83.8,135c-8.5,7-22.4,18.1-34.4,20.6c-7.8,1.6-15.5-0.9-21.1-6.6
	c-3.9-4.1-6.5-9.5-7.2-15c-2.9,1.2-6,2.3-8.8,3.8l-0.3,0.2c0.5,5.3,0.4,10.7-0.5,16.1c-0.7,4-1.7,7.9-3.2,11.9
	c-6.1,16.1-17.7,27.4-31.8,35.5c-25.4,14.7-59.4,21.1-88.5,21.3c-24.5,0.2-53.1-2.9-74-16.8c-2.5,14.3-9.1,25-19.2,34.5
	c-4.4,4.2-4.4,3.5-9.3,0.1c-11.5-8.1-21.7-20.7-22-34.7c-9,6-19.2,10.1-31.7,12.9c-12.6,2.7-27.3,4.2-42.5,4.1
	c-14.1-0.1-28.7-1.6-42.5-4.8c-16-3.7-30.7-8.8-43-17c-12.4-8.3-22.3-19.7-28.4-35.7c-1.3-3.3-2.3-6.8-2.9-10.3l-11.8-12.9
	c-1.5,2.3-3.5,4.4-6.1,6.4c-10.2,8.2-20.1,5.4-31.5,1.6c-29.3-9.7-50.5-25.3-68-49.9c-20.8-28.4-33.6-58.7-38.4-91
	c-0.5-3.4-0.4-3.8,2.8-5.2C72.4,670,80,665.8,84,658.7c4.3-7.5,4.5-22.7,4.5-37V484.2c0-26.6-2.3-51.2-7.3-69.3
	c-2.9-10.5-6.7-18.8-11.5-23.8c-2.9-3-5.6-4.6-9.4-5.1c1.6,7.3-1.9,15.9-8.1,20c-5.5,3.6-13.2,4.3-18.9,0.7
	c-6.7-4.1-8.3-12.6-6.8-19.8c0.7-3.4,1.9-6.6,3.8-9.4c3.2-4.8,1.7-4.6-3-6.1c-5.9-1.8-11-4.8-15.4-8.5
	c-17.2-14.6-15.1-44.9,2.1-58.3c6.3-4.9,12.9-9.9,19.4-15c8.5-6.7,17-13.5,25.4-20.4c15-12.4,29.7-25.2,43.7-37.8
	c1.4-1.3,3-2.4,4.6-3.4c5.5-3.2,12-4.5,18.2-3.8c6.3,0.7,12.4,3.4,16.8,8.4c1.2,1.3,2.2,2.7,3.1,4.3c4.1,7.2,5.3,14.5,4.1,21.6
	c12.9-7.2,24.8-17.7,28.3-32.2c0.8-3.4-1.9-5.2-5.8-4.4c-12.8,2.6-22.8,0-29.6-5.4c-3.7-2.9-6.4-6.7-8.1-10.9
	c-1.6-4.1-2.3-8.7-1.8-13.4c1.2-11.4,9-23.2,24.5-30.1c9-4,18.2-8,27.4-12.1c22-9.7,44.2-19.8,66.3-29.6
	c12.3-5.5,25.2-12.5,37.1-17.7c5.7-2.5,12.1-3,17.9-2.1h0c11.1,1.7,18.3,7.3,22.6,15c4.1,7.4,5.4,16.5,4.6,25.5
	c1-0.7,3.1-2.1,4.1-2.7c1.8-1.3,1.7-1.6,1.5-4.5c-1.1-11-2.5-22.2-4.5-33.5c-2-11.3-4.5-22.7-7.8-33.8c-0.3-0.9-1-1.2-2.2-0.7
	c-1.1,0.4-2.1,0.8-3.2,1.1c-4.4,1.4-4.7,0.5-5.9-3.4c-1.5-4.8-3.2-10.1-4.8-15.5c-1.8-5.7-3.2-10.7-5.2-17c-0.5-1.5,0.1-2.8,1.5-3.5
	c7-3.5,14.6-6.5,22.4-9.4c7.8-2.8,16.1-5.3,24.5-7.7c2.4-0.7,3.1-0.3,3.6,2.2l1.5,7.3c0.4,1.7,0.8,2,2.6,1.7c1.9-0.3,3.8-0.7,5.8-1
	c9.2-1.6,18.5-3.3,28.5-4.1c2.2-0.2,2.3-0.6,2.2-2.5l-0.9-10.3c-0.2-2.3,0.2-2.9,2.9-3.1c18.4-1.1,37.6-1.2,55.9,0
	c2.9,0.2,2.9,0.4,2.8,3.1l-0.5,7.8c-0.1,2.1,0.1,2.4,2.1,2.5c6.7,0.4,13,0.8,19.2,1.3c6.1,0.5,12.2,1.2,18.4,2
	c2.5,0.3,2.3,0.1,2.9-2.3l1.2-4.7c0.6-2.5,1.1-2.6,3.3-2.2c16.8,2.9,32.2,8,47.1,14.1c2.5,1,2.5,1.6,1.6,3.8l-14.7,35.7
	c-0.8,2-1.3,2.2-3.5,1.7l-3.1-0.7c-2.3-0.5-2.2-0.6-2.9,1.6c-2.9,9.9-4.9,20.1-5.7,30.7c-1.1,13.8-2.3,28.6-2.6,42.4
	C520.5,139.2,520.2,139.2,521.5,140z M782.3,331.4c0.1-7.9,3.4-15.8,7.8-22.2c5.1-7.5,13.5-12.8,22.6-14.3c3-0.5,4.1-1.8,0.1-5.2
	c-13.6-11.3-26.9-23.3-39.7-35c-5.7-5.3-11.4-10.5-17.4-15.9c-1-0.9-2.2-1.8-3.4-2.5c-4.5-2.6-9.9-3.6-15.2-2.9
	c-5.2,0.7-10.2,2.9-13.8,6.9c-0.9,1-1.7,2.1-2.4,3.3c-3.2,5.6-3.8,11.5-2.7,17.2c5.6,21.3,42.9,56.2,59.6,72.2
	C781.8,336.9,782.3,336.8,782.3,331.4z M809.6,357.9c3.6,1,7.3,0.7,10.6-0.8c7-2.9,12.5-10.2,14.1-17.5c1.5-6.9-0.2-14.6-6.1-19
	c-5-3.7-11.6-3.9-17.5-2.3c-12.1,3.3-17.9,23.8-9.9,34.3C802.8,355.1,805.4,356.8,809.6,357.9z M680.9,213.6
	c12.7,4.8,24.5,1.7,32-4.9c2.7-2.4,4.9-5.3,6.2-8.4c1.3-3.1,1.9-6.4,1.6-9.7c-0.8-7.8-6.8-15.8-20.3-21.4
	c-21.7-8.9-43.2-17.9-64.3-27.5c-15.9-7.3-31.8-14.9-47.5-23.3c1.5,3.1,2.5,6.5,2.9,10.3c1.4,14.9-10.7,25.8-24.6,27.6
	c-2.4,0.3-3.5,0.3-0.3,2.5C600.4,182.1,642.5,199.1,680.9,213.6z M345.8,117.8c27.6-9,55.8-12,83.4-12.5c28-0.4,55.6,2.1,83.6,11.4
	c2.2,0.7,2.7-0.1,2.9-3c0.2-2.2,0.3-4.4,0.4-6.6c0.3-3.7,0.5-3.4-2.5-4.3c-52.5-14.4-118.2-14.3-170.4,1.7c-2.7,0.8-2.7,0.6-2.2,4.2
	c0.4,2.5,0.7,5.1,1.1,7.6C342.4,118.4,343.1,118.7,345.8,117.8z M342.3,98.8c28.2-7.8,56.7-12.1,85.6-12.5
	c28.2-0.4,56.7,2.8,85.6,10.6c3.3,0.9,3.5,0.3,3.9-2.4c0.4-2.9,0.7-5.8,1.1-8.7c0.4-2.8,0.4-3.1-2.2-3.8
	c-54.1-15.3-122.8-13-176.8,2c-2,0.6-2.8,0.8-2,4.5c0.6,2.8,1.3,5.6,1.8,8.3C339.6,98.6,339.7,99.5,342.3,98.8z M337.2,78.4
	c29.4-8.5,59.3-12.3,89.4-12.9c29.8-0.6,59.7,2.2,90.4,10.5c3,0.8,3.1-0.3,3.8-3.1c0.7-3,1.4-5.9,2.2-8.8c0.7-2.8,0.3-3.1-2.3-3.7
	c-57.1-15-123.3-14.7-180.6-0.1c-2.4,0.6-4.8,1.2-7.2,1.9c-2.7,0.7-1.6,2-0.9,4.5c1.1,3.7,2.1,7.3,2.9,11
	C335.2,78.8,335.3,79,337.2,78.4z M426.1,43.2c35.3-0.7,67.3,5.3,100.8,12.7c4,0.9,6.5,2.9,8.5-2.1l10.1-25.3c0.9-2.1,1-2.9-1.3-3.8
	c-11.5-4.3-23.4-8.6-36.1-11c-1.5-0.3-1.9-0.1-2.3,1.6l-1.3,5.7c-0.5,1.9-0.8,2.6-3.2,2.2c-7.5-1.1-15.1-1.9-23.1-2.6
	c-7.9-0.7-15.9-1.2-24.2-1.6c-2.6-0.1-2.9-1.2-2.8-3.1l0.5-7.9c0.1-2.3-0.1-2.3-2.1-2.5c-15.1-0.9-30.2-0.7-45.2,0.2
	c-2.2,0.1-2.1,0.5-1.9,2.7l0.7,9.9c0.2,2.3-0.1,2.9-2.8,3.1c-11.7,0.6-22.6,2.5-33.2,4.4c-3.3,0.6-6.7,1.2-10.8,1.9
	c-3.3,0.5-2.7,0.9-3.3-2.3l-1.5-7.3c-0.3-1.4-0.9-1.6-2-1.2c-6.7,1.8-13.1,4-19.3,6.2c-5.7,2-11.1,4.3-16.3,6.6
	c-2.9,1.2-3.2,1.5-2.3,4.4c1.3,3.9,2.5,8.1,3.8,12.3c0.9,3,1.8,6.1,2.7,8.8c1.9,5.8,2.4,5.7,7.9,3.7
	C354.9,48.6,391.8,43.9,426.1,43.2z M289.6,156.8c-8.2-2-16.5-7.4-20.2-15.3c-2.4-5.1-2.6-11-1.4-16.7c0.3-1.5,0.7-2.9,1.2-4.3
	c0.5-1.5,0.3-2.3-1.3-1.6c-26.6,12.5-54.1,24.6-81.1,36.4c-9.2,4.1-18.4,8.1-27.4,12.1c-13.3,5.9-20,15.9-21,25.4
	c-0.4,3.7,0.1,7.4,1.4,10.7c1.3,3.3,3.4,6.2,6.3,8.4c7,5.6,18.6,7.4,34.1,1.6c37.2-14.1,77.7-31.1,110.8-53.5
	C294.4,157.5,292.1,157.4,289.6,156.8z M73.4,334.5c9.3-8.1,18.2-16.4,27-24.9c10.1-9.7,19.9-19.7,29.6-29.8
	c6.3-6.5,12.1-12.7,13.6-22.1c1-5.8,0-11.9-3.4-17.8c-0.7-1.2-1.5-2.3-2.4-3.3c-3.4-3.8-8.2-5.9-13.1-6.5c-5-0.6-10.3,0.5-14.6,3
	c-1.3,0.8-2.5,1.6-3.7,2.7c-14.1,12.7-28.8,25.5-43.9,38c-8.1,6.7-16.2,13.3-24.6,19.8c-3.3,2.5-4.1,2.9,0.3,3
	C57.3,296.8,76.6,314.3,73.4,334.5L73.4,334.5C73.5,334.4,73.5,334.5,73.4,334.5z M581.2,854.3c10.1-10.6,18.6-26.7,18.5-41.3
	c-0.1-11.2-6.4-21.1-13.8-29.8c-1-1.2-1.5-1.2-1.8,0.4c-0.2,1.1-0.3,2.2-0.5,3.2c-0.7,3.2-1.5,5.5-2.7,7.4
	c-4.8,8.2-5.1,14.9-5.3,21.5c-0.1,3.2-0.3,6.5-0.9,10c-2.2,12.5-9.8,19.3-20,28.4c-4.4,3.9-8.8,8.8-14.3,13.6c-3.1,2.7-7-1-4.2-4
	c4.2-4.6,8.1-8.3,11.9-11.5c10.4-8.9,11.8-19.3,10.9-31.9c-0.1-3.1-0.4-6-1-8.9c-0.3-1.7-0.3-3.3-1.8-1.3c-1.7,2.2-3.4,3.7-5.2,5.1
	c-3,2.5-5.8,4.8-7.4,12.6c-0.9,4.4-2.1,7.7-3.6,10.3c-1.7,2.8-3.8,4.7-6.4,6.2c-4.4,2.5-8,5.1-11.2,8c-3.2,2.9-6.1,6.2-9.2,10.1
	c-3.4,4.3-7.1,7.5-11,9.8c-10.3,6.2-20.9,7.5-30.1,4c-10.4-3.9-18.7-12.9-25.2-23.3c-2.7,0.6-5.6,1-8.6,1.3
	c6.1,7.9,12.2,13.3,19.3,18.1c20,13.7,48,16.5,71.5,16.3c28.2-0.2,61.1-6.4,85.6-20.5c13-7.5,23.7-17.8,29.2-32.5
	c1.4-3.6,2.3-7.2,2.9-10.8c2.2-13.5-0.7-26.7-7.3-37.7c-6.1-10.2-15.3-18.5-26.2-23.2c-2-0.9-2-0.9-1.1,1.2c0.3,0.7,0.6,1.4,0.8,2.1
	c1.4,4.9,0.5,10-0.8,14.8c-0.8,3-1.4,5.4,2.7,16.2c5.1,13.2,0.1,27-9.1,39.4c-5.7,7.7-13.1,14.9-20.6,21.1c-0.2,0.2-0.3,0.3-0.5,0.5
	l-0.1-0.1c-7.7,6.3-15.7,12-24.8,16c-3.4,1.5-5.5-3.7-2.1-5.2C566.1,866,573.4,861.3,581.2,854.3z M678.4,769.2
	c10.5-1.6,21.4,0.7,28.2,9.6c5.4,7,7.7,17.9,6.8,27c-0.3,3.2,0.7,2,2.4,0.6c37.8-29.8,80.6-81.4,86.5-130.1c0.4-3.1,0.1-3.5-1.9-4.3
	c-5.8-2.2-11.3-4.2-15.8-6.5c-16.2-8.4-16.5-27.8-16.5-44V484.2c0-27.1,2.3-52.2,7.5-70.9c1.1-4.1,2.5-7.8,4-11.1
	c0.3-0.7-0.4-1.2-1-0.5c-13.5,15.9-14.3,44.1-15,66.7c-0.1,2.9-0.2,5.7-0.3,8.3c-0.8,21.5-0.6,43-0.3,64.5
	c0.3,23.6,0.6,47.1-0.5,70.6c-1.9,38.4-8.5,66.7-22.4,91.4C726.9,726.9,707,747,678.4,769.2z M662.3,799.2
	c1.4-10.7,10.2-17.4,20.1-18.7c8.1-1.1,15.2,1.4,21.2,6.3c2,1.6,1-0.4,0.3-1.6c-5-8.4-14.7-12-24.2-10.6c-6.2,0.9-12,3.9-16.1,8.3
	c-3.8,4-6.3,9.3-7.6,15.2c-0.6,2.8-1.3,4.2,2.1,2.8C659.5,800.4,660.9,799.9,662.3,799.2z M702.7,793.9c-5.3-5.3-11.8-8.6-19.5-7.6
	c-8.7,1.1-16,7.7-15.2,17.6v0c0.4,4.6,2.4,9.2,5.7,12.6c4.4,4.5,10.2,6.1,16.3,5.1c4-0.6,7.8-2.4,10.8-4.9
	C709.2,808.8,709.2,800.7,702.7,793.9z M435.5,904.1c6.3-7.7,11.1-15.8,13.3-25c0.6-2.6,1.9-4.8-0.5-6.8c-4.5-3.8-8.7-8.6-12.8-13.6
	c-1.5-1.9-2.1-1.4-2.1,0.4c0.1,7.4,0.1,14.7,0.1,21.6c0,7.1-0.1,13.6-0.2,21.4C433.4,906.2,433.4,906.4,435.5,904.1z M217.4,786.9
	c-4.6-6.3-9.3-12.5-14.7-18.1c-12.6-13-29.2-23.3-42.5-35.9c-15.6-14.8-29.5-35.8-33.6-57.8c-2.7-14.5-0.6-29.4,10.3-43.9
	c4.9-6.5,11.7-11.7,18.5-16.9c5.4-4.1,10.9-8.3,15.1-13c4.5-5,7.4-8.9,9.2-13.2c3.8-9,2.3-20.4,3.4-30.1c0.2-2.1,0.6-4.6-1.8-1.7
	c-1.1,1.3-2.1,2.6-3.2,3.9v0c-5.1,6.2-10,12.4-14.9,18.7c-5.1,6.6-10.8,11.6-16.2,16.5c-5.2,4.7-12.5,10.9-16.5,16.9
	c-2.2,3.4-3.8,7.1-5.2,10.6c-1.1,2.7-5.9,3-4.6-1.7c1.2-4,3.3-8,5.7-11.6c4.4-6.7,11.3-12.5,17.3-17.8c5.4-4.8,10.9-9.7,15.7-15.9
	c5.9-7.5,10.3-15.7,13.4-24.4c3.1-8.8,4.8-18.2,5-27.9c0.1-4.9,0.8-10.2,2.2-15.4c1.2-4.4,3-8.8,5.5-12.6c1.5-2.3,2.3-5.4,2.4-8.6
	c0.2-7.8-3.3-12.8-2-22c0.6-3.9,1.8-7.6,3.3-11.3c2.3-5.7,3.2-11.7,3.7-17.8c0.3-3.7,0.4-7.5,0.2-11.3
	c-7.6,12.2-17.1,26.9-21.5,40.6c-2.1,6.4-3.8,12.8-6.7,18.9c-5.6,11.8-10.7,23.1-17.8,33c-10.1,13.9-19.4,27.2-22.3,42.3
	c-0.7,3.5-5.5,2.9-4.8-0.9c3-16.2,12.8-29.9,23.1-44.3c7-9.7,12.6-20.5,17.4-32.3c7.5-18.4,10.8-39.7,18.5-58.8
	c4.1-8.9,7.8-17.9,8.8-25.2c1.8-12.5-7.4-10.6-5-26.4c0.8-5,0.8-7,0.2-11.4c-0.9-7-3.8-15.6-10.3-19.6c-1.5-0.9-1.5-0.9-1.1-2.7
	c1.5-7.6,1.4-16.7-6.1-21.3c-2.1-1.3-1.7,1.5-1.8,2.9c-0.8,12.2-1,23.5-2.7,35.8c-2.2,16-5.3,31.9-9.6,48.4
	c-7.9,31.1-14.5,61.1-30,92c-2.1,4.2-6.4,2-4.4-2.1c14.5-28.9,20.6-57,28.4-86.1c1.8-6.8,1.2-8-2.1-10.2c-3-2-5.2-3.9-6.5-6.4
	c-2-3.8-1.8-8.2-0.5-13.8c1.1-4.8,1.7-9.3,1.2-13.2c-0.5-3.6-2.1-6.6-5.4-8.7c-1.5-1.1-1.4-0.7-1-2.7c3.2-10.6,2.2-17.6,0-24.7
	c-0.6-2.1-0.7-2.1-2.2-0.4c-5.1,5.7-8.9,12.8-11.7,20.9c-3.2,9.4-4.7,20.3-3.9,32.6c0.7,10,1.3,20.4,1.5,31.4
	c0.2,10.1-0.1,20.6-1,31.3c-0.4,4.9-5.1,4.8-4.9-0.5c0.7-13.9-2.4-29.3-8.1-41.9c-3.8-8.5-8.9-15.9-15.2-21.4
	c-1.3-1.1-2.8-2.2-4.4-3.2c-6.4-3.9-14.9-6.6-23.2-6.7c-8-0.1-15.8,2.2-21.1,8.1c-2.5,2.8-4.3,6.3-5,10c-1,4.8-0.4,10.9,4.1,13.7
	c3.8,2.4,9,1.8,12.6-0.7c4.5-2.8,7-9,5.5-14.2c-1.5-5.2-10.7-4.6-12.4,1c-0.5,1.5-0.6,2.7-1.1,4.3c-1.2,4.1-4.1,3.6-3.7-1.8
	c0.7-8.7,7.5-12.6,16-11.8c6.3,0.6,13.9,2,20.5,4.7c8.5,3.5,14.4,9.4,18.5,16.7c6.2,10.9,8.4,24.7,10.3,38.3
	c4.7,34.6,3.8,69.1,2.9,103.5c-0.6,23.2-1.2,46.5-0.1,69.6c1.8,37.5,8.3,65,21.6,88.8c12.9,22.9,32.2,42.4,60.1,64.2
	c4.1,3.2,8.9,4.8,13,7.9c8,5.9,11.4,14.3,13.8,23.7c0.3,1.3,0.6,2.3,1,0.8c0.8-3,1.4-4.9,2.9-7.8C218.5,787.8,218.2,788,217.4,786.9
	z M411.5,852.2c-9.7,17.8-21.4,27.9-41.7,19.1c-8.7-3.8-12.8-6.3-17.4-14.8c-7.2-13.4-21-14-27.7-25.8c-1.6-2.9-3.2-5.8-6.4-8
	c-6.8-4.9-9.8-9.2-11.7-14.7c-0.7-1.9-0.9-1.8-1.2,0.3c-3.1,17.7,7.5,39.8,22.3,49.7c4.9,3.3,10.7,6.6,17.7,9.3
	c4.7,1.8,2.7,7.9-2.5,5.5c-6.4-3-12.6-5.9-18.5-9.9c-6.5-4.3-11.5-9.4-14.9-16.5c-2.5-5.2-5.3-9.7-10.4-12.8
	c-8-4.9-9.1-6.8-9.1-16.1c0-9.7-6.8-18-7.7-27.9c-0.3-3.5-0.4-6.8-0.4-10.3c0-2.1,0.8-3.5-1.3-1c-13.2,15.8-14.5,39.5-5.8,58
	c8.1,17.3,14.3,24.8,30.3,32.8c5.8,2.9,2.6,8-2.1,5.4c-7.8-4.1-15.6-9.9-23.2-16c-8.4-6.7-15.9-14.8-21.2-24.6
	c-2.6-4.9-2.9-10-3.2-15.2c-0.3-6-0.7-12.2-5.1-17.8c-6.6-8.5-3.4-13.7,0.7-20.1c0.5-0.8,1-1.6,1.6-2.6v0c1.3-2.2,1.2-5.1,1.2-8
	c0-2.7-0.2-5.4,0.6-8c0.3-1-0.4-0.8-1.1-0.5c-11.6,5-21.3,13.8-27.6,24.7c-6.7,11.6-9.4,25.6-6.3,39.9c0.6,2.8,1.4,5.6,2.5,8.5
	c5.6,14.8,14.7,25.3,26.1,33c11.6,7.8,25.7,12.7,41.1,16.2c13.3,3.1,27.5,4.5,41.2,4.6c14.8,0.1,29.1-1.3,41.3-4
	c12.1-2.6,21.8-6.6,30.2-12.4c7.1-4.9,12.9-10.5,19-18.3C417.5,853.5,414.4,853,411.5,852.2z M179,819.4c4.5,0.5,9-0.7,13.1-3.9
	c2.7-2.1,4.6-4.4,5.9-6.8c3-6,1.4-16.4-3.5-20.9c-10.2-9.2-21.1-3.8-26.7,5C160,805.1,164.4,817.9,179,819.4z M410.5,877.2
	c0.3,10.4,7,18,14.4,25.2c2,2,2.7,2.6,2.8-0.7c0.1-7.6,0.1-13.9,0.1-20.8c0-7.4,0-14.6-0.1-22.5c0-1.6-0.7-2.5-2.1-0.8
	c-3.7,4.6-7.5,8.7-11.4,12.4C410.8,872.9,410.3,872.5,410.5,877.2z M179.1,765.6c-26.1-20.8-44.6-40-57.2-62.4
	c-13.8-24.6-20.5-52.9-22.4-91.4c-1.1-23.3-0.5-46.7,0.1-70c0.9-34.3,1.8-68.6-2.8-102.6c-1.8-13-3.9-26.2-9.6-36.2
	c-1.8-3.2-4-6.2-6.9-8.6c-0.6-0.5-1.3-0.4-0.8,0.5c2.7,5.2,5.3,11.3,7.3,18.4c5.2,18.7,7.5,43.8,7.5,70.9v137.4
	c0,15.3-0.4,31.3-5.2,39.9c-4.2,7.5-11,13-21.9,17.6c-2.8,1.2-3.4,2.2-2.8,5.1c6.4,29.8,17.3,57.8,36.5,84.1
	c14.8,20.2,33.9,36.7,58.1,45.3c-1.6-2.5-2.8-5.4-3.6-8.5c-3.7-14.9,2.8-34.8,19-38.8C175.9,765.9,177.5,765.7,179.1,765.6z
	 M419.6,835c1.2,0.3,3,0.5,4.2,0.5c2.5,0,3-0.1,3-2.7v-8.4c0-4.2-1.6-9.9-4.4-14.8c-10.9-19-53.7-19.5-74.4-25.1
	c-9-2.5-17.8-6.6-25.8-10.3c-1.5-0.7-1.2,0.3-0.7,1.3c1,1.9,2,3.8,3.2,5.6c3,4.8,6.6,9.6,11,14.2c7.3,7.6,21,17.6,34.7,22.6
	c5.6,2,11.1,3.2,16.2,2.9c4.8-0.2,9.1-1.8,12.5-5c2.3-2.5,6-6.1,5.3-9.8c-0.3-1.6,0.2-2.4,1.9-2.2c0.9,0.2,2.3,0.8,3.2,1.4
	c5.7,3.9,7.2,8.4,8.3,13.1c0.9,3.8,1,8,0.2,14.4C417.8,834.2,418.8,834.8,419.6,835z M435,835.4c1.7-0.2,3.4-0.4,5.1-0.6
	c1.8-0.2,1.8-0.7,1.9-2.3c0.5-7.6,3.7-13,7.6-16.7c5.1-4.9,10.7-7,17.2-9c0.7-0.2,2-0.1,1.5,1.2c-1.5,3.9-0.4,8.5,2.4,11.5
	c4.4,4.9,11,5.6,18.7,3.7c8.4-2.2,17.6-8.9,27.2-15.6c16.5-11.6,32.9-25.5,43.2-37.2c0.9-1,1.2-1.8-0.4-0.9
	c-11.6,6.5-23.1,9.1-35.7,12.2c-13.8,3.4-27.6,7.5-41.2,11.4c-22,6.3-49.4,16.7-49.7,39.9C432.7,835.1,433.3,835.6,435,835.4z
	 M411.7,839.7c-3.8-0.8-5.4,3.5-2.6,5.2c4.5,2.8,12.2,3.6,20.1,3.6s17.3-0.7,21.7-3.6c3-2,0.5-5.8-2.6-5.2
	C436.1,842,423.9,842.2,411.7,839.7z M665.9,735.7c2.9-13.3-0.7-19.9-6-28.7c-0.7-1.2-1.4-2.4-2.2-3.7c-1.6-2.4-1.3-1.9-2.5,0.9
	c-1,2.5-1.6,5-2,7.3c-0.9,4.6-0.7,9.2,1.4,14.2c1.6,3.8,2.3,7.7,2,11.4c-0.3,3.6-1.5,7.1-3.9,10.4c-3.6,5-5.7,10.6-6.2,16.3
	c-0.3,3.2-0.4,7.3,0.3,10.5c0.4,1.8,0.3,1.7,1.4,0.4c6.3-7.1,12.8-14.7,19.4-21.1c7.5-7.4,15.5-14.3,24.7-20.7
	c13.6-9.5,24-25.8,27.4-42c3.3-15.8,1.8-31.8-7.2-44.5c-5.9-8.4-16.6-14.9-23.9-23.8c-1.7-2-1.3-2.4-2.1,0.3
	c-2.7,9-0.9,13.4,1.7,20.2c1.1,2.7,2.2,5.7,3.4,9.5c3.2,13.7,3.8,36.7,0.7,50.8c-1.3,5.9-3,11.4-5.1,16.2c-2.3,5.3-7,3.8-4.6-1.5
	c0.9-2.1,1.8-4.4,2.6-6.8c2.2-6.9,2.3-14.9,1.9-22.2c-0.3-4.8-1.2-9.5-2.9-13.6c-1.5-3.7-3.3-6.2-5-8.8c-1.4-2.1-2.6-4.3-4.2-6.7
	c-1.5-2.4-1.2-2.4-2.5,0.2c-0.9,1.8-1.6,3.6-2.3,5.8c-3.1,10.2-2,18.3-1,25.9c1.1,8.4-1.4,16.9,1.5,24.9c1.9,5.4,2.5,11.4,0.4,20.3
	C669.7,742.8,664.8,740.9,665.9,735.7z M196,711.5c-0.3,11.8,6.9,20.9,6.9,33.1c0,4-4.6,4.1-4.9,0.1c-0.9-11.8-7.2-21.7-6.9-33.4
	c0.2-7.5,2.5-15.1,3.4-22.7c0.8-7,1.2-14.2-0.9-20.4c-1.4-4.2-2.3-7.8-2.7-11.5v0c-0.1-1-0.2-2-0.3-3.1c0-0.9-0.7-1.5-1.4-0.7
	c-4.1,4.6-7.4,8.5-9.7,12.5c-5,8.3-7.1,20.6-5.2,29.4c1.1,6.5,2.5,13.4,2.7,21c0.1,3.3-4.4,4.7-4.9,0.3c-0.8-7.5-1.5-14.2-2.6-20.5
	c-2.6-16-4.9-29.7,4.2-47c3.7-7.1,0.8-15.4-0.7-22.7c-0.4-1.9-1.1-2.9-3.3-0.9c-14,12.5-23.7,23.8-29.4,34
	c-6.6,11.8-7.8,22.1-4.3,30.8c6.9,16.8,14.2,26.8,27.1,39c12.7,12.1,28,21.8,40.5,34c4.6,4.5,7.9,9.5,11.7,14.3
	c2.4,3,2.2,3.5,2.6-0.5c0.5-4,0.5-9,0.6-12.2c0.2-8.1-1.8-13.3-4-20.5c-2.8-8.9-5.1-15.2-1.6-24.6c1.8-4.9,2.5-8.4-0.6-14
	c-2.9-5.1-3-8-2.5-11.8c0.3-2.6-0.2-2.6-1.6-2C198.8,695.2,197.1,700.4,196,711.5z"/>
<path class="st2" d="M433.3,789C433.3,789,433.3,789,433.3,789c10.6-6.7,22-12,33.9-16.2c9.4-3.3,19-6,28.7-8.2
	c15.9-3.7,31.9-6.5,47.8-10.1c13.8-3.2,27.3-7.2,40.1-13.5c11.8-5.7,22.7-13.2,32.2-22.3c15.9-15.4,26.6-34.9,33.2-55.9
	c9.5-30,11.3-62.2,11.1-93.4c-0.2-35.9-3-71.7-3.8-107.6c-0.4-19.1-0.3-38.1,0.8-57.1c1.2-20.7,3.6-41.4,7.5-61.8
	c-3.7-0.8-7.3-1.6-10.9-2.7c-14.2-4.1-27.5-10.5-38.5-20.4c-6.5-5.8-12-12.5-16.4-19.9c-3.8-6.2-6.8-12.9-9.2-19.8
	c-7.6-1.2-15.2-2.5-22.8-4c-20.5-4-40.8-9.2-60.6-15.8c-25.2-8.3-49.6-18.7-72.9-31.2c0,0,0,0,0,0c0,0,0,0,0,0
	c-23.4,12.6-47.7,22.9-72.9,31.2c-19.8,6.5-40.1,11.8-60.6,15.8c-7.6,1.5-15.2,2.8-22.8,4c-2.4,6.9-5.4,13.6-9.2,19.8
	c-4.5,7.4-10,14.2-16.4,19.9c-11.1,9.8-24.4,16.2-38.5,20.4c-3.6,1-7.2,1.9-10.9,2.7c3.9,20.4,6.3,41.1,7.5,61.8
	c1.1,19,1.2,38.1,0.8,57.1c-0.8,35.9-3.7,71.7-3.8,107.6c-0.1,31.2,1.6,63.5,11.1,93.4c6.7,21,17.3,40.5,33.2,55.9
	c9.4,9.1,20.4,16.6,32.2,22.3c12.8,6.2,26.3,10.3,40.1,13.5c15.9,3.6,31.9,6.4,47.8,10.1c9.7,2.2,19.3,4.9,28.7,8.2
	C411.2,777,422.7,782.3,433.3,789C433.3,789,433.3,789,433.3,789"/>
<path class="st1" d="M433.3,789C433.3,789,433.3,789,433.3,789c10.6-6.7,22-12,33.9-16.2c9.4-3.3,19-6,28.7-8.2
	c15.9-3.7,31.9-6.5,47.8-10.1c13.8-3.2,27.3-7.2,40.1-13.5c11.8-5.7,22.7-13.2,32.2-22.3c15.9-15.4,26.6-34.9,33.2-55.9
	c9.5-30,11.3-62.2,11.1-93.4c-0.2-35.9-3-71.7-3.8-107.6c-0.4-19.1-0.3-38.1,0.8-57.1c1.2-20.7,3.6-41.4,7.5-61.8
	c-3.7-0.8-7.3-1.6-10.9-2.7c-14.2-4.1-27.5-10.5-38.5-20.4c-6.5-5.8-12-12.5-16.4-19.9c-3.8-6.2-6.8-12.9-9.2-19.8
	c-7.6-1.2-15.2-2.5-22.8-4c-20.5-4-40.8-9.2-60.6-15.8c-25.2-8.3-49.6-18.7-72.9-31.2c0,0,0,0,0,0c0,0,0,0,0,0
	c-23.4,12.6-47.7,22.9-72.9,31.2c-19.8,6.5-40.1,11.8-60.6,15.8c-7.6,1.5-15.2,2.8-22.8,4c-2.4,6.9-5.4,13.6-9.2,19.8
	c-4.5,7.4-10,14.2-16.4,19.9c-11.1,9.8-24.4,16.2-38.5,20.4c-3.6,1-7.2,1.9-10.9,2.7c3.9,20.4,6.3,41.1,7.5,61.8
	c1.1,19,1.2,38.1,0.8,57.1c-0.8,35.9-3.7,71.7-3.8,107.6c-0.1,31.2,1.6,63.5,11.1,93.4c6.7,21,17.3,40.5,33.2,55.9
	c9.4,9.1,20.4,16.6,32.2,22.3c12.8,6.2,26.3,10.3,40.1,13.5c15.9,3.6,31.9,6.4,47.8,10.1c9.7,2.2,19.3,4.9,28.7,8.2
	C411.2,777,422.7,782.3,433.3,789C433.3,789,433.3,789,433.3,789 M433.3,774.4c12.4-7.2,25.9-12.5,39.6-16.7
	c20.8-6.4,42.4-9.9,63.6-14.5c11.7-2.5,23.2-5.6,34.3-10.2c17.5-7.3,33.1-18.2,45.1-33c11.2-14,18.5-30.6,23.2-47.8
	c7.6-27.7,8.7-57.2,8.5-85.7c-0.3-39-3.8-78-3.9-117c0-13,0-26.1,0.7-39.1c1-19.6,3.2-38.5,6-57.9c-11.6-4.2-21.2-7.7-31.9-14
	c-6.1-3.6-12-8.9-17-13.9c-9.4-9.7-15.5-20.5-20.9-32.8c-9.1-1.5-18.2-3.3-27.2-5.2c-17.4-3.8-34.7-8.4-51.6-14
	c-23.5-7.8-46.5-17.4-68.5-28.8c-22,11.4-44.9,21-68.5,28.8c-16.9,5.6-34.2,10.3-51.6,14c-9,2-18.1,3.7-27.2,5.2
	c-5.4,12.3-11.6,23.1-20.9,32.8c-4.9,5.1-10.9,10.3-17,13.9c-10.7,6.4-20.3,9.8-31.9,14c2.8,19.4,5,38.3,6,57.9
	c0.7,13,0.7,26.1,0.7,39.1c-0.1,39-3.6,78-3.9,117c-0.2,28.5,0.9,58,8.5,85.7c4.7,17.2,12,33.8,23.2,47.8
	c11.9,14.9,27.5,25.8,45.1,33c11.1,4.6,22.6,7.7,34.3,10.2c21.3,4.6,42.8,8.2,63.6,14.5C407.4,761.9,420.9,767.2,433.3,774.4z
	 M433.3,780.5L433.3,780.5c20.7-12.2,43.7-19.2,67-24.3c21.6-4.7,44-7.9,64.9-15.2c16.9-5.9,32.7-14.8,45.7-27.3
	c16.8-16.3,27.2-37.3,33.3-59.7c7.7-28.1,9.2-58.5,8.7-87.3c-0.5-29.7-2.3-59.3-3.3-89c-0.9-27.8-1.1-55.7,1-83.5
	c1.2-15.3,3-30.5,5.6-45.6l0,0c-7-1.8-13.7-4.1-20.4-7c-11.3-4.9-21.9-12.1-30.4-21c-9.5-9.8-15.6-21.4-21.1-33.8
	c-5.6-0.9-11.1-1.9-16.6-3c-27.7-5.3-54.9-12.8-81.3-22.6c-18.1-6.8-35.9-14.6-53-23.6c0,0,0,0,0,0c0,0,0,0,0,0
	c-17.1,9-34.9,16.9-53,23.6c-26.4,9.9-53.7,17.3-81.3,22.6c-5.5,1.1-11.1,2.1-16.6,3c-5.5,12.4-11.7,24-21.1,33.8
	c-8.6,8.9-19.1,16.1-30.4,21c-6.6,2.9-13.3,5.2-20.4,7l0,0c2.6,15.1,4.4,30.3,5.6,45.6c2.1,27.8,2,55.7,1,83.5
	c-1,29.7-2.9,59.3-3.3,89c-0.5,28.9,1,59.3,8.7,87.3c6.1,22.4,16.5,43.4,33.3,59.7c12.9,12.5,28.7,21.4,45.7,27.3
	c20.9,7.3,43.3,10.5,64.9,15.2C389.6,761.3,412.6,768.3,433.3,780.5L433.3,780.5z M433.3,222.6C433.3,222.6,433.3,222.6,433.3,222.6
	C433.3,222.6,433.3,222.6,433.3,222.6c-47.8,26-101.3,43.5-160.5,52.3c-11.9,36.2-36.6,56.3-77.3,63.6c14.4,72,8.4,136.1,5.7,206.6
	C198,632.6,205,727,306,756.3c39.8,11.6,86.7,12.8,127.3,39.5c0,0,0,0,0,0c0,0,0,0,0,0c40.6-26.7,87.5-27.9,127.3-39.5
	c101-29.4,108-123.8,104.7-211.1c-2.6-70.6-8.6-134.6,5.7-206.6c-40.7-7.3-65.4-27.5-77.3-63.6C534.6,266.1,481.1,248.6,433.3,222.6
	z"/>
<path class="st3" d="M525.6,694c-7.3,4.7-11.2,9.9-13.3,18.5c-3.4,14.5,7.9,20.1,23,18.9c8.9-0.7,16-2.9,23.2-8.2
	c6.7-5,12.6-10,14.5-18.3c1.5-6.5,0.3-16.2-3.8-21.7c-6.1-8.2-16.1-5.3-23.6-1.2C539.1,685.5,532.3,689.7,525.6,694 M452.4,685.5
	c-5,19.6-0.5,29.9,20.5,37.3c6.8,2.4,14.4,3,21.2,1.1c6.4-1.7,8.9-9.3,8-16.4c-1.9-15.4-4.7-18.8-16.2-29.3
	C473,666.5,456.4,669.6,452.4,685.5z M368.4,682.3c0.3,4.3,0.8,8.5,1.6,12.7c2.2,12.3,10.7,18.5,22.3,21.1c4.4,1,8.8,1.6,13.3,2.3
	c6.7,1,13.7,1.7,20-0.8c15-6,21.8-29.1,10.4-40.7c-9.4-9.7-29.8-27.5-43.5-33.4c-9.7-4.2-19,1-22.6,11.1
	C367.1,663,367.7,673.6,368.4,682.3z M303.6,666.7c0.6,12.1,6.4,23.5,18.8,28.3c7.5,2.8,16.8,3.8,24.9,4c7,0.2,13.7-1.6,16-9
	c1.4-4.4,0.7-9.4-0.1-13.8c-2.4-13.1-9.4-23.9-24-26.8c-5.2-1.1-16.2-0.2-23.7,2C307.8,653.6,303.2,658,303.6,666.7z"/>
<path class="st0" d="M503.9,694c1.4-0.7,2.2-2.5,1.9-5.1c-1.7-19.3-2-39.9,7.3-57.4c6.4-12.1,7.9-10.2,4.3-24.6
	c-2.5-9.9-2.6-20,2.6-29.2c1-1.8,2.2-3.3,3.4-4.9c1.7-2.3,2.5-3.6,0.5-5.8c-2.2-2.4-3.9-4.5-7.3-8c-3.7-3.7-5.8-5.4-11.1-4.5
	c-7.4,1.3-18.8,4.5-24.7,6.4c-3.5,1.1-2.5,2.2-0.7,5c4.9,7.8,11.3,18.7,14.6,25.1c11.2,21.6,8.7,50.7,3.8,74.1
	c-1,4.6-2.1,10.8-3.3,15.6C495.2,680.7,501.6,688,503.9,694 M436.6,302.4c5.8-4.1,10.8-7.3,17.3-10.1c1.7-0.8,3.8-1.4,3.3,0
	c-1.2,3.3-3.9,5.9-4.4,10.4c-0.4,4,2.4,7,6.6,8.2c11.3,3.1,19,2,25.8-0.7c6.8-2.7,13.8-7.4,21.8-11.1c6.1-2.8,7-2.2,3.2,2.5
	c-2.9,3.7-7.2,7.6-5.1,12.5c4.3,9.5,29.3,7,36.2,4.6c5.7-2,11.3-4.4,17-5c3.4-0.4,2.9,0.5,0.5,1.8c-5.4,3.1-10.8,10.3-1.2,16.8
	c8.2,5.5,19.2,6.7,28,2.4c3.1-1.5,2.2,0.6,1.8,2.2c-2.1,8.4,5.9,18.4,10.8,24.7c4,5.1,2.9,4.6,0.4,2.9c-2.1-1.4-5.2-4.1-7.3-5.5
	c-4.6-3.3-9.1-8.3-12.8-10.7c-19.6-12.3-45.7-18.9-68.2-23.8c-12.3-2.7-24.7-4.9-37.4-6c-22.8-1.9-47.7-1-69.4,6.7
	c-10.9,3.9-25.6,9.3-30.5,20.5c-1.7,3.9-1.5,9.9,3.9,11.5c5.1,1.5,12.6,2.2,17.1,4.9c3,1.8,5.8,4.1,8.1,6.8c2.4,2.8,4.1,5.9,5.6,9.2
	c1,2.3,1.9,4.8,2.5,7.3c1.4,5.5-1.9,3.6-4.4,1.3c-2.9-2.6-5.7-5-9.4-6.1c-13-3.8-18.6-6.6-29-15.4c-2.2-1.9-4.2,1.2-2.5,3.4
	c2.4,3.2,4.2,3.1,4.9,7.6c0.1,1.8-0.2,3.4-1.1,5c-3.7,6.6-14.3,8.2-20.9,7.5c-3.7-0.4-6.4-2.4-9.9-3.2c-5.3-1.2-11,0.5-16.1,1.8
	c-2.1,0.5-5.9-1.3-3.9-3.2c2.3-2.1,0.3-4.4-2.4-4.2c-1.3,0.1-2.5,0.6-3.7,1c-1.9,0.6-4.4,1.8-6.8,2.1c-2.7,0.3-7.1-0.6-6-4.4
	c0.8-2.8,3.5-5,5.8-6.5c4.7-3,10.2-6.6,14.9-9.5c6.4-4,11.8-9,18.7-12.1c4.2-1.9,10.2-3.8,14.6-5c4.3-1.2,11-2.6,13.9-5.9
	c7-8.1,16.8-26.7,26.9-35.5c3.4-2.9,1.2,0.2,0.3,4c-3.4,13.8,14.6,9,21.8,6.5C424,311.5,429.9,307.1,436.6,302.4z M377,437.5
	c-3.6,12.4-5.4,26.1,2.8,37.1c6.1,8.3,16.4,13.3,26.2,15.7c17.6,4.4,36.9,2,54.5-1.1c15-2.6,30-5.6,45.1-7.9
	c27.3-4.1,53.8-3.7,72.6,16.7c5.9,6.4,8.9,11.2,11.9,18.1c1.7,3.9,3.8,9.2,3.8,13.5c-0.2,1.9-0.4,1.4-0.9,0.3
	c-2.9-5.3-5.3-10.8-9.4-15.3c-2.9-3.1-6.8-1.9-4.3,2.1c3.5,5.5,7.1,10.8,9.2,16.9c2.4,7.5,2.4,14.7,1.5,22.5
	c-0.6,5.5-1.8,11-2.6,16.5c-2.1,12.9-0.5,22.9,5,34.7c1.6,3.5,3.5,7,5.5,10.2c3.4,5.6,5.1,9.8,3.5,16.4c-1.2,5.3-1.9,10.1-2.7,15.5
	c-1.3,9.9-1.2,19.2,0.8,29.1c0.4,1.8,0.5,3.8,0.6,5.7c0.1,2,0.4,3.2-1.7,4.2c-4,2-5,4.7-5.1,8.9c-0.1,2.5-0.1,5.1-0.1,7.6
	c-0.1,2.4-1,2.7-2.9,4.1c-0.8,0.6-9.3,5.8-12.9,7.4c-2.1,0.9-2.7,0.6-1.9-1.5c3.1-7.4,9.3-17.5,12.7-24.9c1.9-4,2.8-6.9,3.7-11.3
	c1.9-9.4,0.9-19.1-0.4-28.5c-0.6-4-1-7.9-2.1-11.8c-1.1-4-2.5-8.1-4.2-11.8c-4.3-9.5-10.2-18.5-17.6-25.6
	c-10.8-10.3-23.7-20.1-34.4-32.1c-6.4-7.2-13.3-14-19.1-21c-7.9-9.6-16.6-18.7-29.6-21c-3.8-0.7-5.3,3.4-1.7,4.8
	c8,3.1,17.2,6.5,23.2,15.6c0.7,1.1,1.1,1.3-0.3,1.6c-8,2-16.1,3.6-24,5.9c-16.6,4.9-31.5,13.4-47.4,19.9
	c-17.4,7.2-35.1,10.5-53.8,8.6c-7.7-0.8-15.3-2.3-21.1-5.3c-2.4-1.2-3.4-2.6-3.2-5.2c0.1-1.9,0.2-3.9,0.3-5.8
	c0.4-5.9,1.7-11,2.8-16.8c0.5-2.4,0.5-4.8,0.4-7.1c0-3.3-5.3-5.1-5.7,0.7c-0.2,2.4-0.4,4.1-0.8,6c-1.1,5.7-2.4,10.6-2.4,16.4
	c0,2.1-0.1,4.1-0.8,6.1c-3.5,10.1-10.3,9.2-17.7,3.9c-8.4-6-16.6-11.8-25.5-17.1c-8.9-5.3-20.5-12.2-30.6-15.1
	c-6.6-1.8-5.1,4.8-3.2,8.3c4.1,7.3,10.7,14.1,16.9,19.8c4.8,4.5,9.6,7.9,15.3,11.2c2.5,1.5,5.1,2.8,7.7,4.2c1.9,1,1.1,2.7,0.6,4.2
	c-2.6,8,8.1,13.5,14.5,14.3c4.1,0.5,9.7-0.3,13-2.4c0.4-0.2,0.5-0.3,0.9,0.2c3.5,4.3,5.7,8.6,7.9,13.5c0.2,0.5,0,0.7-0.4,0.8
	c-7.9,2.4-20.6,0.1-27.8-4.4c-1.7-1.1-3.3-2.3-4.7-3.8c-5.4-5.5-10.6-11.1-15.9-16.8c-4.8-5.2-9.1-9.9-13.8-15.2
	c-5.4-6.1-10.8-12.2-16-18.5c-5.1-6.1-9.8-11.6-14.4-18.1c-1.8-2.6-4.1-5.7-5.2-8.8c-1.3-3.6,0.9-6.9,4.1-8.5c2-1,4.6-1.5,6.6-0.6
	c7.7,3.6,14.7,7.2,22.5,10.9c11.5,5.4,22.5,11.5,34,16.9c7.1,3.3,7.7-0.3,7.1-5.6c-0.6-5.6-3.4-11.9-2.3-17.5c1-5.4-4.6-7.7-5.6-1.3
	c-0.7,4.4,0.1,8.7,0.9,12.8c0.6,3.2-0.9,4.9-4.3,3.4c-2.5-1.1-5.6-2.6-8.5-4c-3.6-1.8-7.6-3.2-10.1-6.6c-9.8-13.6-4.8-42,0.3-55
	c7.3-18.7,19.4-36.7,31.1-52.9c6-8.3,17.5-21.1,20.6-31.2c15.2,1,24-4.7,27.5-14.4c14.1,2.2,12.8,13.8,11.4,22.3
	C384.9,413.5,380.5,425.5,377,437.5z M460.8,387.1c24.4,10.4,33.6,3.9,53-7.1c7-4,5.8-2.2,0.5,2.6c-7.7,6.9-5.4,13.9,5.5,15.9
	c6.6,1.2,14.3,0.1,16.8-0.9c10.5-3.9,14.3-7.5,24.9-11.8c13.2-5.3,9.1-2.1,1.7,3.4c-7.8,5.7-7.4,15.3,1.2,16.9
	c5.7,1,12,0.6,17.8,0.1c6-0.6,10.7-2.7,15.2-4.7c6.4-2.8,5.9,0.5,5.2,4.4c-1.7,9.3,12.3,20.7,17.5,28c4.1,5.7,3.5,6.7-1.2,2.2
	c-10.6-10.2-17.8-16.5-35.5-20.6c-14-3.2-28.5-5.4-42.8-7.1l-36.3-4.3c-20.2-2.4-40.1-6.6-59.4-13.2c-10.2-3.5-16.8-6.1-27.6-6.9
	c-0.5-0.4-1-0.7-1.4-1.1c-1.1-1-2.5-3.4-3.3-4.8c-0.8-1.9-1-2.2,1.1-2.2c5.3,0.4,10.5,0.4,15.7,0.3c9.7-0.2,21.3-4.8,30.7-7.8
	c4.5-1.4,10-2.1,4.3,1.9C458.7,374,448.9,382,460.8,387.1z M344.4,357.3c-2.5,0-4.4,1.2-4.2,2.8c0.1,1.5,2.2,2.8,4.7,2.8
	c2.5,0,4.4-1.2,4.2-2.8C349,358.6,346.9,357.4,344.4,357.3z M287.5,606.1c2.9,2.2,2.6,3.1,1.6,6.3c-0.9,3.2,1,7.7,3.1,10.3
	c3.3,4,9.3,5.7,14.3,4.9c1-0.2,1-0.3,1.7,0.7c2.9,4.2,6.2,7.8,7.9,12.8c0.3,1,0.2,1.2-0.5,1.2c-2.3-0.1-4.7-0.4-6.9-1.1
	c-4.4-1.4-9.2-4-12.1-6.3c-3.7-2.9-6.7-6.5-9.2-10.4c-2.7-4.2-4.4-8.8-6.7-13.3c-1.8-3.4-3.8-6.7-5.8-9.9c-2.6-4.1-5-7.5-7.8-11.4
	c-2.5-3.5-5.1-7-7.6-10.4c-4.4-6.1-8.7-12.1-12.2-18.9c-0.8-1.5-1.4-2.8-1.3-4.6c0.2-3.1,4.3-9.2,8-6.8c3.4,2.1,7.3,7.6,9.6,10.6
	c1,1.3,0.7,1.7,0.4,3.3c-0.6,3.5-0.4,6.6,0.5,10c1,3.5,2.5,6.9,4.3,10.1C273.5,591.9,279.4,600,287.5,606.1z"/>
<path class="st1" d="M373.9,660.1c-1.8,9.2-0.9,23.2,0.9,33.6c2.4,13.7,14,17,25.3,18.7c10.4,1.5,21.6,4.6,30-4.4
	c7-7.5,9.9-21.2,2.3-28.2c-8.3-7.7-29-25.6-39.9-31.2C382.4,643.4,375.5,651.9,373.9,660.1 M452.4,685.5c-5,19.6-0.5,29.9,20.5,37.3
	c6.8,2.4,14.4,3,21.2,1.1c6.4-1.7,8.9-9.3,8-16.4c-1.9-15.4-4.7-18.8-16.2-29.3C473,666.5,456.5,669.6,452.4,685.5z M543.6,687.8
	c-8.2,5.6-19.9,11.5-23.5,17.4c-10.8,17.3,1,24.2,20.8,21.1c9.5-1.5,16.2-7,22-12.5c5.9-5.6,6.7-12.9,5.2-20.5
	C565,677.4,551.5,682.4,543.6,687.8z M525.6,694c-7.3,4.7-11.2,9.9-13.3,18.5c-3.4,14.5,7.9,20.1,23,18.9c8.9-0.7,16-2.9,23.2-8.2
	c6.7-5,12.6-10,14.5-18.3c1.5-6.5,0.3-16.2-3.8-21.7c-6.1-8.1-16.1-5.3-23.6-1.2C539.1,685.5,532.3,689.7,525.6,694z M308.3,665.1
	c0.5-5,3.7-8,7.8-9.1c6.4-1.7,16.2-2.2,22.8-1.2c8.8,1.4,16.2,8,18.5,17.2c3.1,12.5,3.8,23-10.9,22.5c-3.7-0.1-7.1-0.4-10.4-1.1
	c-7.1-1.4-16.5-2.9-21.2-8.9C310.6,678.8,307.6,672.6,308.3,665.1z M303.6,666.7c0.6,12.1,6.4,23.5,18.8,28.3
	c7.5,2.8,16.8,3.8,24.9,4c7,0.2,13.7-1.6,16-9c1.4-4.4,0.7-9.4-0.1-13.8c-2.4-13.1-9.4-23.9-24-26.8c-5.2-1.1-16.2-0.2-23.7,2
	C307.8,653.6,303.2,658,303.6,666.7z M436.6,302.4c5.8-4.1,10.8-7.3,17.3-10.1c1.7-0.8,3.8-1.4,3.3,0c-1.2,3.3-3.9,5.9-4.4,10.4
	c-0.4,4,2.4,7,6.6,8.2c11.3,3.1,19,2,25.8-0.7c6.8-2.7,13.8-7.4,21.8-11.1c6.1-2.8,7-2.2,3.2,2.5c-2.9,3.7-7.2,7.6-5.1,12.5
	c4.3,9.5,29.3,7,36.2,4.6c5.7-2,11.3-4.4,17-5c3.4-0.4,2.9,0.5,0.5,1.8c-5.4,3.1-10.8,10.3-1.2,16.8c8.2,5.5,19.2,6.7,28,2.4
	c3.1-1.5,2.2,0.6,1.8,2.2c-2.1,8.4,5.9,18.4,10.8,24.7c4,5.1,2.9,4.6,0.4,2.9c-2.1-1.4-5.2-4.1-7.3-5.5c-4.6-3.3-9.1-8.3-12.8-10.7
	c-19.6-12.3-45.7-18.9-68.2-23.8c-12.3-2.7-24.7-4.9-37.4-6c-22.8-1.9-47.7-1-69.4,6.7c-10.9,3.9-25.6,9.3-30.5,20.5
	c-1.7,3.9-1.5,9.9,3.9,11.5c5.1,1.5,12.6,2.2,17.1,4.9c3,1.8,5.8,4.1,8.1,6.8c2.4,2.8,4.1,5.9,5.6,9.2c1,2.3,1.9,4.8,2.5,7.3
	c1.4,5.5-1.9,3.6-4.4,1.3c-2.9-2.6-5.7-5-9.4-6.1c-13-3.8-18.6-6.6-29-15.4c-2.2-1.9-4.2,1.2-2.5,3.4c2.4,3.2,4.2,3.1,4.9,7.6
	c0.1,1.8-0.2,3.4-1.1,5c-3.7,6.6-14.3,8.2-20.9,7.5c-3.7-0.4-6.4-2.4-9.9-3.2c-5.3-1.2-11,0.5-16.1,1.8c-2.1,0.5-5.9-1.3-3.9-3.2
	c2.3-2.1,0.3-4.4-2.4-4.2c-1.3,0.1-2.5,0.6-3.7,1c-1.9,0.6-4.4,1.8-6.8,2.1c-2.7,0.3-7.1-0.6-6-4.4c0.8-2.8,3.5-5,5.8-6.5
	c4.7-3,10.2-6.6,14.9-9.5c6.4-4,11.8-9,18.7-12.1c4.2-1.9,10.2-3.8,14.6-5c4.3-1.2,11-2.6,13.9-5.9c7-8.1,16.8-26.7,26.9-35.5
	c3.4-2.9,1.2,0.2,0.3,4c-3.4,13.8,14.6,9,21.8,6.5C424,311.5,429.9,307.1,436.6,302.4z M377,437.5c-3.6,12.4-5.4,26.1,2.8,37.1
	c6.1,8.3,16.4,13.3,26.2,15.7c17.6,4.4,36.9,2,54.5-1.1c15-2.6,30-5.6,45.1-7.9c27.3-4.1,53.8-3.7,72.6,16.7
	c5.9,6.4,8.9,11.2,11.9,18.1c1.7,3.9,3.8,9.2,3.8,13.5c-0.2,1.9-0.4,1.4-0.9,0.3c-2.9-5.3-5.3-10.8-9.4-15.3
	c-2.9-3.1-6.8-1.9-4.3,2.1c3.5,5.5,7.1,10.8,9.2,16.9c2.4,7.5,2.4,14.7,1.5,22.5c-0.6,5.5-1.8,11-2.6,16.5
	c-2.1,12.9-0.5,22.9,5,34.7c1.6,3.5,3.5,7,5.5,10.2c3.4,5.6,5.1,9.8,3.5,16.4c-1.2,5.3-1.9,10.1-2.7,15.5
	c-1.3,9.9-1.2,19.2,0.8,29.1c0.4,1.8,0.5,3.8,0.6,5.7c0.1,2,0.4,3.2-1.7,4.2c-4,2-5,4.7-5.1,8.9c-0.1,2.5-0.1,5.1-0.1,7.6
	c-0.1,2.4-1,2.7-2.9,4.1c-0.8,0.6-9.3,5.8-12.9,7.4c-2.1,0.9-2.7,0.6-1.9-1.5c3.1-7.4,9.3-17.5,12.7-24.9c1.9-4,2.8-6.9,3.7-11.3
	c1.9-9.4,0.9-19.1-0.4-28.5c-0.6-4-1-7.9-2.1-11.8c-1.1-4-2.5-8.1-4.2-11.8c-4.3-9.5-10.2-18.5-17.6-25.6
	c-10.8-10.3-23.7-20.1-34.4-32.1c-6.4-7.2-13.3-14-19.1-21c-7.9-9.6-16.6-18.7-29.6-21c-3.8-0.7-5.3,3.4-1.7,4.8
	c8,3.1,17.2,6.5,23.2,15.6c0.7,1.1,1.1,1.3-0.3,1.6c-8,2-16.1,3.6-24,5.9c-16.6,4.9-31.5,13.4-47.4,19.9
	c-17.4,7.2-35.1,10.5-53.8,8.6c-7.7-0.8-15.3-2.3-21.1-5.3c-2.4-1.2-3.4-2.6-3.2-5.2c0.1-1.9,0.2-3.9,0.3-5.8
	c0.4-5.9,1.7-11,2.8-16.8c0.5-2.4,0.5-4.8,0.4-7.1c0-3.3-5.3-5.1-5.7,0.7c-0.2,2.4-0.4,4.1-0.8,6c-1.1,5.7-2.4,10.6-2.4,16.4
	c0,2.1-0.1,4.1-0.8,6.1c-3.5,10.1-10.3,9.2-17.7,3.9c-8.4-6-16.6-11.8-25.5-17.1c-8.9-5.3-20.5-12.2-30.6-15.1
	c-6.6-1.8-5.1,4.8-3.2,8.3c4.1,7.3,10.7,14.1,16.9,19.8c4.8,4.5,9.6,7.9,15.3,11.2c2.5,1.5,5.1,2.8,7.7,4.2c1.9,1,1.1,2.7,0.6,4.2
	c-2.6,8,8.1,13.5,14.5,14.3c4.1,0.5,9.7-0.3,13-2.4c0.4-0.2,0.5-0.3,0.9,0.2c3.5,4.3,5.7,8.6,7.9,13.5c0.2,0.5,0,0.7-0.4,0.8
	c-7.9,2.4-20.6,0.1-27.8-4.4c-1.7-1.1-3.3-2.3-4.7-3.8c-5.4-5.5-10.6-11.1-15.9-16.8c-4.8-5.2-9.1-9.9-13.8-15.2
	c-5.4-6.1-10.8-12.2-16-18.5c-5.1-6.1-9.8-11.6-14.4-18.1c-1.8-2.6-4.1-5.7-5.2-8.8c-1.3-3.6,0.9-6.9,4.1-8.5c2-1,4.6-1.5,6.6-0.6
	c7.7,3.6,14.7,7.2,22.5,10.9c11.5,5.4,22.5,11.5,34,16.9c7.1,3.3,7.7-0.3,7.1-5.6c-0.6-5.6-3.4-11.9-2.3-17.5c1-5.4-4.6-7.7-5.6-1.3
	c-0.7,4.4,0.1,8.7,0.9,12.8c0.6,3.2-0.9,4.9-4.3,3.4c-2.5-1.1-5.6-2.6-8.5-4c-3.6-1.8-7.6-3.2-10.1-6.6c-9.8-13.6-4.8-42,0.3-55
	c7.3-18.7,19.4-36.7,31.1-52.9c6-8.3,17.5-21.1,20.6-31.2c15.2,1,24-4.7,27.5-14.4c14.1,2.2,12.8,13.8,11.4,22.3
	C384.9,413.5,380.5,425.5,377,437.5z M287.5,606.1c2.9,2.2,2.6,3.1,1.6,6.3c-0.9,3.2,1,7.7,3.1,10.3c3.3,4,9.3,5.7,14.3,4.9
	c1-0.2,1-0.3,1.7,0.7c2.9,4.2,6.2,7.8,7.9,12.8c0.3,1,0.2,1.2-0.5,1.2c-2.3-0.1-4.7-0.4-6.9-1.1c-4.4-1.4-9.2-4-12.1-6.3
	c-3.7-2.9-6.7-6.5-9.2-10.4c-2.7-4.2-4.4-8.8-6.7-13.3c-1.8-3.4-3.8-6.7-5.8-9.9c-2.6-4.1-5-7.5-7.8-11.4c-2.5-3.5-5.1-7-7.6-10.4
	c-4.4-6.1-8.7-12.1-12.2-18.9c-0.8-1.5-1.4-2.8-1.3-4.6c0.2-3.1,4.3-9.2,8-6.8c3.4,2.1,7.3,7.6,9.6,10.6c1,1.3,0.7,1.7,0.4,3.3
	c-0.6,3.5-0.4,6.6,0.5,10c1,3.5,2.5,6.9,4.3,10.1C273.5,591.9,279.4,600,287.5,606.1z M460.8,387.1c24.4,10.4,33.6,3.9,53-7.1
	c7-3.9,5.8-2.2,0.5,2.6c-7.7,6.9-5.4,13.9,5.5,15.9c6.6,1.2,14.3,0.1,16.8-0.9c10.5-3.9,14.3-7.5,24.9-11.8
	c13.2-5.3,9.1-2.1,1.7,3.4c-7.8,5.7-7.4,15.3,1.2,16.9c5.7,1,12,0.6,17.8,0.1c6-0.6,10.7-2.7,15.2-4.7c6.4-2.8,5.9,0.5,5.2,4.4
	c-1.7,9.3,12.3,20.7,17.5,28c4.1,5.7,3.5,6.7-1.2,2.2c-10.6-10.2-17.8-16.5-35.5-20.6c-14-3.2-28.5-5.4-42.8-7.1l-36.3-4.3
	c-20.2-2.4-40.1-6.6-59.4-13.2c-10.2-3.5-16.8-6.1-27.6-6.9c-0.5-0.4-1-0.7-1.4-1.1c-1.1-1-2.5-3.4-3.3-4.8c-0.8-1.9-1-2.2,1.1-2.2
	c5.3,0.4,10.5,0.4,15.7,0.3c9.7-0.2,21.3-4.8,30.7-7.8c4.5-1.4,10-2.1,4.3,1.9C458.7,374,448.9,382,460.8,387.1z M503.9,694
	c1.4-0.7,2.2-2.5,1.9-5.1c-1.7-19.3-2-39.9,7.3-57.4c6.4-12.1,7.9-10.2,4.3-24.6c-2.5-9.9-2.6-20,2.6-29.2c1-1.8,2.2-3.3,3.4-4.9
	c1.7-2.3,2.5-3.6,0.5-5.8c-2.2-2.4-3.8-4.5-7.3-8c-3.7-3.7-5.8-5.4-11.1-4.5c-7.4,1.3-18.8,4.5-24.7,6.4c-3.5,1.1-2.5,2.2-0.7,5
	c4.9,7.8,11.3,18.7,14.6,25.1c11.2,21.6,8.7,50.7,3.8,74.1c-1,4.6-2.1,10.8-3.3,15.6C495.2,680.7,501.6,688,503.9,694z M461.7,363.7
	c5.9-1.4,12.1-1.9,19-2c4-0.1,3.9,1.5,1.2,3c-5.9,3.3-15.2,6.9-19.4,12.3c-2.7,3.5-2.5,5.7,5.5,8.1c19.9,5.9,26.3-0.6,43.6-8.9
	c4.6-2.2,9.9-3.9,16.3-4.4c3.1-0.2,4.5,0.6,2.5,2.2c-4.1,3.5-11.1,7.6-14.3,12.9c-3,5.2-0.7,6.3,3.1,7.1c7.2,1.5,13.7,0.2,19.7-2.4
	c12.8-5.7,23.7-13.4,38.4-13.7c4.3-0.1,5.4,1,1.2,4.2c-3.8,2.9-8.9,7.2-12.7,11c-6.7,6.9-2.4,9.1,3.6,9.3c4.7,0.2,11.8-0.8,14.2-1.6
	c7.4-2.7,15.5-5.8,20.5-7.2c3.1-0.8,6.8-0.1,5.5,2.6c-2.7,5.4-3.6,11.9,0,17.1c7.1,10.5,15.1,17.4,18.7,29.8
	c1.2,4.1,0.9,5.8-2.9,2.5c-10.9-9.4-21.2-17.6-31.4-22.2c-7.3-3.3-15.2-4.8-23.4-6.6c-15.7-3.4-32.4-4.7-47.4-6.8
	c-12.8-1.8-25.7-2.6-38.3-5.4c-14.3-3.2-30-4.7-42.9-10.7c-1.6-0.7-27.7-10.3-27.2-5.2c0.6,6.3-6.6,4.2-11.7,0.7
	c-3.8-3.4-8.2-5.3-13.2-6.2c5.9,7.3-1.2,30.9-3.4,38.5c-4.6,15.9-13.4,36.5-0.9,51.2c11.7,13.8,36.7,15.8,53.8,14.3
	c16.1-1.4,32-5,48-7.7c18.9-3.2,39.9-7.6,59.1-3.9c14.8,2.9,26.1,9.1,35.8,19.7c7.4,8.1,16.7,25.1,15.1,37.7c-0.3,2.6-1.6,4-3.9,2.1
	c-0.5-0.4-0.1,0.6-0.1,0.6c1.3,5.2,1.6,11,1.3,16.5c-1.9,23.6-7.9,33.6,3.5,55.6c2.4,4.7,6,8.9,7.3,14c1.6,6.1,0.2,11-1.2,17
	c-2.1,9.1-2.3,19.2-2,28.4c0.2,5.1,1.5,10,1.9,15.1c0.2,3.1,0.7,7.6-2.7,8.9c-3.3,1.2-4,1.9-4,6.6c-0.1,7.3,1.3,10.4-4.8,14.5
	c-4.4,3-12.3,7.9-17.5,8.8c-4.1,0.7-6-1.6-4.4-5.4c4.6-10.5,9.9-20.8,14.5-29.8c5.9-11.5,3.3-29.3,1.2-41.3
	c-3.1-17.8-14.4-34.8-28.1-46.5c-10-8.5-19.3-15.9-28.1-25.6c-0.5-0.5-4.3,4-4.7,4.6c-4.3,6-6.2,12.6-5.6,19.9
	c0.5,6,2.5,11.6,3.6,17.5c0.8,5.4-0.1,9-3.7,13.2c-3.8,4.4-7,13.3-8.5,18.9c-1.4,5.3-2.1,10.7-2.1,16.2c-0.1,9.2,0.8,18.2,1.1,27.3
	c0.1,4.1-1.8,6.7-5,7.6c0,0,0,0,0,0c0.3,1.2,0.6,2.5,0.9,3.9c0.7,4,1.4,8.1,0.9,12.2c-0.8,6.5-4.2,12.7-10.8,14.5
	c-11.8,3.2-23.5,0.2-34.2-5.4c-5.4-2.8-10.5-6.8-13.4-12.4c-4.3-8.2-3.1-18.3-0.8-27c1.9-7.4,6.4-13.7,13.8-16.4
	c8.9-3.2,18.7,0,25.6,5.9c0.7,0.6,4.7,4.1,4.6,4c4.6-18.9,8-39.8,6-59.2c-2.3-22.7-13.3-35.7-25.2-53.9c-13.5,5-27.3,11.3-41,16.8
	c-16.4,6.5-34.6,8.9-52.2,7.3c-9.1-0.9-18.1-2.9-26.8-6.2c-5.2,3.5-9.7,5.3-17.5,0.5c-4.9-3.1-9.6-6.2-14.4-9.5
	c-5.9-4.1-11.8-8-18-11.6c-7.2-4.2-16.4-10-24.4-12.7c-1.3-0.4-2.2-0.2-1.2,1.5c2.3,4,5,7.4,8.1,10.9c7.5,8.5,15.1,14.6,25,20.2
	c1.5,0.9,3.2,1.6,4.7,2.4c2.7,1.6,3.8,4.3,3.1,7.3c-0.5,2.4-2,3.9,1.5,6.8c3,2.4,7,4.1,10.9,4c3.1,0,6.2-0.9,9-2.2
	c2-1,3.2-1.3,4.7,0.4c4.2,4.4,7.6,11.4,9.9,16.5c1.5,3.2-0.1,4.7-3.3,5.3c-6.6,1.2-13.3,1-19.9-0.4c-9.6-2-14.4-6.1-21.2-13.2
	c-11.7-12.3-22.6-24.3-33.8-37.1c-2-2.3-4.1-4.7-6.1-7.1c-0.7-0.9-2.2-0.9-2.3,0.5c-0.4,6.8,2,11.8,5.4,17.8
	c3.9,7.1,8.4,13.5,14.7,18.6c1,0.8,2.2,1.6,3.2,2.4c2.9,2.5,3.7,5,2.6,8.8c-1.2,3.9,1.1,7.8,4.4,9.7c3,1.8,6.1,1.7,9.7,1.2
	c2-0.3,2.7,0.7,3.8,2.3c3.6,5.2,8.5,10.1,9.3,17.8c0.3,3.3-2.1,3.4-5.1,3c-9.4-1.1-17.5-4.4-24.4-11c-4.3-4.1-7.7-8.8-10.2-14.2
	c-1.9-4.1-3.6-8.1-6-12c-2.7-4.5-5-8.3-8-12.6c-5.3-7.5-10.9-14.8-16.1-22.4c-3.3-5-7.1-9.3-8.7-15.1c-2-7.3,4.1-15.2,11.3-14.5
	c1,0.1,0.5-0.6,0.2-1.1c-1.4-2-2.9-4.1-4-6.3c-3.2-5.9-3.5-10.3,1.5-15.1c3.6-3.4,9-4.5,13.6-2.5c8.8,3.9,16.2,8.4,23.6,11.1
	c1.7,0.6,1.4-0.7,1-1.8c-4.3-12.3-4.2-24.5-1.5-38.1c5.5-27.4,22.7-50.2,38.9-72.4c6.1-8.4,13.7-17.2,17.4-26.8
	c-3.3-0.9-6-2.4-9.5-2.5c-4.7-0.1-10,1.7-14.3,2c-6.9,0.4-7.6-5.9-8.1-5.9c-2.9,0.1-5.5,1.9-9.2,1.4c-11.2-1.5-9.1-12.7-1.9-17.3
	c9.9-6.2,20.3-13.5,30.3-20.2c6.3-4.2,14.1-7.2,21.2-9c9.8-2.5,10.8-3,16.5-11.7c8.7-13.3,15.8-23.6,28.8-33.4
	c2.3-1.8,3.9-1.8,2.8,1.5c-1.2,3.7-3.4,8.3-3.2,12.1c0.2,2.5,1.7,3.6,4.9,3.7c4.1,0,10.9-2,14.8-3.9c15.5-7.7,26.8-18.6,44.8-23.7
	c3-0.8,4.4-0.4,2.7,3c-1.3,2.7-3.4,5-5,7.5c-2.2,3.5-4.8,10.2,1.1,11.5c5.3,1.2,10.1,0.8,15.5,0.5c8.9-0.6,19.5-8.5,27.4-12
	c4.8-2.1,9-3.7,15.1-3.6c4.4,0.1,6.3,0.8,0.4,6c-4.4,4-5.8,6.1-7.8,10.1c-1.3,2.6-1.6,4.6,0.9,6.1c7,3.9,20.5,2.1,27.9,0
	c10.6-3,23.3-8.2,31-3.8c1.8,1,2,2.8,0.4,3.2c-4.6,1-12.1,2.2-14.5,7.9c-3,7.1,5.4,9.6,10.5,10.9c8.3,2.1,13.7,0.3,22.2-4.9
	c1.7-1.1,4.6-0.8,3.9,2.8c-1.7,8.5-3.1,11.6,2.3,20.4c3.7,6.1,8.8,14.1,11.8,18.6c2.6,3.9,4.4,6.3-7,1.3
	c-11.4-5-19.7-16.5-30.3-21.8c-24.8-12.4-48.9-19-76.6-23.3c-32.9-5.1-66.3-6.4-97.8,7c-4.3,1.9-16.6,7.8-18.4,14.7
	c-1.1,4,0.5,5.3,3.6,6.2c3.8,1.1,7.3,2,10.6,3.3c6.5,2.6,12.1,7.3,16.1,13c1,1.4,3.2,1.9,6.4,2C432.7,373.5,444.6,367.8,461.7,363.7
	z M344.4,357.3c-2.5,0-4.4,1.2-4.2,2.8c0.1,1.5,2.2,2.8,4.7,2.8c2.5,0,4.4-1.2,4.2-2.8C349,358.6,346.9,357.4,344.4,357.3z
	 M368.4,682.3c0.3,4.3,0.8,8.5,1.6,12.7c2.2,12.3,10.7,18.5,22.3,21.1c4.4,1,8.8,1.6,13.2,2.3c6.7,1,13.7,1.7,20-0.8
	c15-6,21.8-29.1,10.4-40.7c-9.4-9.7-29.8-27.5-43.5-33.4c-9.7-4.2-19,1-22.6,11.1C367.1,663,367.7,673.6,368.4,682.3z"/>
</svg>
