<?xml version="1.0" encoding="utf-8"?>
<!-- Generator: Adobe Illustrator 23.1.0, SVG Export Plug-In . SVG Version: 6.00 Build 0)  -->
<svg version="1.1" id="Layer_1" xmlns="http://www.w3.org/2000/svg" xmlns:xlink="http://www.w3.org/1999/xlink" x="0px" y="0px"
	 viewBox="0 0 1360.6 1982.9" style="enable-background:new 0 0 1360.6 1982.9;" xml:space="preserve">
<style type="text/css">
	.st0{fill:#ED1C24;}
	.st1{fill:#FFFFFF;}
	.st2{fill:#C6AA55;}
</style>
<path d="M1287.9,986.7c-17.3-65.3-56.9-168.5-88.7-251.3c-17.9-46.5-33.3-86.7-41-110.6l-1.9-5.9c-20.4-63-33.9-104.7-31.7-166.3
	l0.1-1.7l0.2-1.8c9.3-85.2,40-153.4,64.1-195.6l0.5-0.8L973.8,55.4l-0.7,0.2c-25.3,8.8-69.6,22.6-137,38
	C746,114.2,686,117.7,683.5,117.8l-2.6,0.1l0,0v1810.6v1.4l3.7-1.5l0.6-0.3c92.1-42.9,164.8-82.3,228.7-123.9
	c80.8-52.6,147.5-109,203.8-172.4c54.4-61.4,94.9-118,123.8-173.2c28.9-55.3,44.8-106.6,56.6-149.6c12.2-44.4,17.2-99.5,14.7-159.1
	C1310.2,1095.3,1301.7,1038.8,1287.9,986.7z"/>
<path class="st0" d="M680.7,118l-2.6-0.1c-2.5-0.1-62.5-3.6-152.6-24.2c-67.4-15.4-111.7-29.2-137-38l-0.7-0.2L172.7,252.1l-0.7,0.6
	l0.5,0.8c24.1,42.2,54.7,110.4,64.1,195.6l0.2,1.7l0.1,1.8c2.3,61.6-11.2,103.3-31.7,166.3l-1.9,5.9c-7.8,24-23.2,64.1-41,110.6
	c-31.8,82.9-71.4,186-88.7,251.3c-13.8,52-22.3,108.6-24.7,163.4c-2.6,59.6,2.5,114.6,14.7,159.1c11.8,43,27.7,94.4,56.6,149.6
	S189.6,1570.6,244,1632c56.3,63.4,123,119.8,203.8,172.4c64.4,41.9,137.7,81.5,230.8,124.8l0.5,0.2l1.7,0.6L680.7,118z"/>
<path class="st1" d="M1041.3,1417.6L1004,1388l-0.7,1c-13.8,18.5-30,36-48.2,51.9c-34.7,30.4-75.5,54.4-121.1,71.3
	c-48.1,17.8-99.4,26.9-152.5,26.9s-104.4-9-152.5-26.9c-45.6-16.9-86.3-40.9-121.1-71.3c-18.2-15.9-34.4-33.4-48.2-51.9l-0.7-1
	l-85.8,68.2l0.7,0.9c42,55.4,99,102.2,164.9,135.2c36.1,18.1,74.8,32.1,114.9,41.5c41.4,9.8,84.4,14.7,127.7,14.7s86.3-5,127.7-14.7
	c40.1-9.5,78.8-23.4,114.9-41.5c65.9-33,123-79.8,164.9-135.2l0.7-0.9L1041.3,1417.6z"/>
<path class="st2" d="M1051.4,304.8c-15.3-10.4-70.3-30.3-145.8,0.7S772,336.5,719.8,333s-113.1-32-127.3-34.8
	c-14.3-2.8-28.2-8-61.6,0c-33.4,8-57.7,28.2-64,45.6c-6.3,17.4-6.3,35.5,4.9,60.5c11.1,25,47.3,66.8,47.3,66.8l0.4,490.4
	c-15.7,12.9-29.8,27.5-42,43.7l-30.2-17.1l-32.3,57l30,17c-12.3,29.9-19.1,62.7-19.1,97c0,39.4,8.9,76.8,24.9,110.1l-29,18.7
	l35.4,55.1l29.2-18.8c40.4,47.6,97.8,80.3,162.9,88.4l-0.1,35.5l65.5,0.1l0.1-35.8c66.8-8.8,125.5-43.4,165.8-93.4l31.2,19.1
	l34.2-55.9l-31.3-19.2c14.2-31.7,22-66.9,22-103.9c0-37.1-7.9-72.3-22.1-104.1l31.3-19.2L911.6,980l-31.2,19.1
	c-13.5-16.7-29-31.8-46.2-44.6V487.1c32-27.5,67.1-41.4,96.7-50.4s77.2-23.7,97.1-36.2c19.8-12.5,34.8-26.1,42.1-46.3
	C1077.5,334,1066.7,315.3,1051.4,304.8z M739.4,1121.5c-4.3-7-10.3-12.4-17.9-16.5c-7.6-4-19.4-7.9-35.4-11.6
	c-15.9-3.8-26-7.4-30.1-10.8c-3.3-2.7-4.9-6-4.9-9.8c0-4.2,1.7-7.5,5.2-10.1c5.4-3.9,12.8-5.9,22.4-5.9c9.2,0,16.1,1.8,20.8,5.5
	c4.6,3.6,7.6,9.6,9,17.9l32.8-1.4c-0.5-14.9-5.9-26.8-16.2-35.7c-10.3-8.9-25.6-13.4-46-13.4c-12.5,0-23.1,1.9-31.9,5.6
	c-8.8,3.8-15.6,9.2-20.3,16.4c-4.7,7.2-7,14.9-7,23.1c0,12.8,5,23.7,14.9,32.6c7.1,6.3,19.4,11.7,37,16c13.7,3.4,22.4,5.7,26.2,7.1
	c5.6,2,9.5,4.3,11.8,7s3.4,5.9,3.4,9.8c0,6-2.7,11.2-8,15.6c-5.4,4.5-13.3,6.7-23.9,6.7c-10,0-17.9-2.5-23.7-7.5
	c-5.9-5-9.8-12.8-11.7-23.5l-31.9,3.1c2.1,18.1,8.7,31.9,19.7,41.4c9.3,8,21.9,12.6,37.9,13.8l-97.6,77.5V995.6
	c30.9-20.3,67.8-32.2,107.5-32.2c37,0,71.6,10.3,101.2,28.2c-0.1,151.8-0.3,282.4-0.3,282.4l-92.8-77c10.3-0.7,19.2-2.5,26.6-5.6
	c9.4-3.9,16.8-10,21.9-18.1c5.2-8.1,7.7-16.8,7.7-26.1C745.9,1137.1,743.7,1128.5,739.4,1121.5z M485.8,1159.1
	c0-40.8,12.5-78.6,33.8-109.9l0.2,213.5l1.5,8.8C498.9,1239.7,485.8,1200.9,485.8,1159.1z M681.4,1354.7c-37.2,0-72-10.4-101.6-28.4
	l100.9-80.7l101.7,81.1C752.9,1344.5,718.4,1354.7,681.4,1354.7z M877,1159.1c0,46.1-16,88.5-42.7,122v-244
	C861.1,1070.6,877,1113,877,1159.1z M986,365c-1.7,4.1-7.4,9.1-24.3,15c-16.9,5.8-55.2,12.6-81.6,18.8s-71.9,25.6-87.6,49.5
	c-15.7,23.9-19.2,45.7-9.5,83.7c0,22.4-0.2,211-0.3,392.5c-21.1-9.1-43.7-15.5-67.3-18.6v-35.8h-65.5v35.5
	c-26.8,3.3-52.4,10.8-76,21.8V423.9c0,0,17.1-35.2,59.5-36.7c42.5-1.5,63.9,14.9,119.1,14.5c55.2-0.4,86.8-6.9,109.5-12.9
	s53.2-16.9,70.5-24.3c17.3-7.4,27.6-11.5,40.6-10.1C986.2,355.8,987.8,360.9,986,365z"/>
<path class="st2" d="M1050.8,1405.7l-49.9-39.7c-15,22.8-33.6,44.1-55.7,63.4c-33.3,29.2-72.5,52.2-116.3,68.5
	c-46.4,17.2-95.9,25.9-147.2,25.9s-100.8-8.7-147.2-25.9c-43.9-16.3-83-39.3-116.3-68.5c-22-19.3-40.7-40.6-55.7-63.4l-49.9,39.7
	l-59.9,47.6c88.5,126.2,247.5,210.4,429,210.4s340.5-84.2,429-210.4L1050.8,1405.7z M923.7,1591.3c-36.1,18.1-74.6,32-114.7,41.4
	c-41.3,9.7-84.2,14.7-127.4,14.7s-86.1-4.9-127.4-14.7c-40-9.4-78.6-23.4-114.7-41.4c-66-33.1-122.6-79.5-164.5-134.9l47.6-37.9
	l36.3-28.9c13.9,18.6,30.1,36.1,48.3,52.1c34.8,30.5,75.7,54.6,121.4,71.5c48.2,17.9,99.7,26.9,152.9,26.9s104.7-9.1,152.9-26.9
	c45.7-16.9,86.6-41,121.4-71.5c18.3-16,34.5-33.5,48.3-52.1l36.3,28.9l47.6,37.9C1046.3,1511.8,989.7,1558.2,923.7,1591.3z"/>
<path class="st2" d="M1333.7,974.3c-27.9-105.3-109.8-300.6-130.5-364.5s-33.3-100.8-31.3-155.7c13.7-125.1,79-209.7,79-209.7
	L983.6,0c0,0-45.6,20.9-158.8,46.8C737.6,66.9,684.3,70,680.7,70c-3.2,0-57.7-3.1-144.9-23.1C422.6,21,377,0.1,377,0.1L109.7,244.5
	c0,0,65.3,84.6,79,209.7c2,54.9-10.6,91.8-31.3,155.7C136.7,673.8,54.8,869.1,26.9,974.4s-38.7,241.9-9.9,347.4
	c29.2,106.8,68.1,203.7,190.8,341.9c125.5,141.4,286.3,234.2,472.5,319.2l0,0l0,0l0,0l0,0c186.2-84.9,347-177.7,472.5-319.2
	c122.6-138.2,161.6-235.1,190.8-341.9C1372.4,1216.3,1361.6,1079.6,1333.7,974.3z M1296.3,1308.8c-11.7,42.9-27.6,94.2-56.5,149.4
	c-28.8,55.1-69.3,111.7-123.7,172.9c-56.2,63.4-122.8,119.7-203.6,172.2c-63.5,41.3-136.7,81-228.6,123.8l-3.8,1.7l-1.7-0.7
	c-92.9-43.2-166.6-83.1-230.6-124.7c-80.8-52.5-147.3-108.9-203.6-172.2c-54.4-61.3-94.8-117.8-123.7-172.9
	c-28.9-55.2-44.8-106.5-56.5-149.4c-12.1-44.3-17.2-99.2-14.6-158.7C51.7,1095.4,60.3,1039,74,987c17.3-65.2,56.9-168.4,88.7-251.2
	c18-46.7,33.5-86.9,41.2-110.9l1.9-5.9c20.5-63.2,34-104.9,31.7-166.7l-0.1-1.8l-0.2-1.8c-9.5-86.8-41.3-155.9-64.2-196l214.7-196
	c26.4,9.2,70.6,22.8,137.2,38c90.2,20.6,150.2,24.1,152.8,24.2l2.7,0.1l2.7-0.1c2.5-0.1,62.6-3.6,152.8-24.2
	c66.5-15.2,110.7-28.8,137.2-38l214.5,196.2c-22.9,40.1-54.7,109.3-64.2,196l-0.2,1.8l-0.1,1.8c-2.3,61.9,11.3,103.6,31.7,166.7
	l1.9,5.9c7.8,24,23.2,64.2,41.1,110.7c31.8,82.9,71.4,186,88.7,251.2c13.8,52,22.3,108.4,24.6,163.2
	C1313.5,1209.6,1308.5,1264.4,1296.3,1308.8z"/>
<g>
	<path class="st2" d="M313.1,1443.6l11.7,9.9c-3,4.2-4.4,8.2-4.2,11.9c0.2,3.7,2,7.2,5.4,10.6c3.5,3.6,7,5.6,10.3,5.9s6-0.5,8-2.5
		c1.3-1.3,2.1-2.8,2.2-4.4c0.2-1.7-0.3-3.8-1.5-6.4c-0.8-1.8-2.9-5.5-6.4-11.3c-4.4-7.5-6.7-13.5-6.9-18c-0.3-6.4,1.8-11.7,6.2-16
		c2.8-2.8,6.3-4.6,10.3-5.4s8.2-0.3,12.4,1.4c4.2,1.8,8.4,4.8,12.6,9c6.8,7,10.4,13.7,10.8,20.2c0.4,6.5-1.9,12.3-6.8,17.5
		l-11.5-10.7c2.4-3.3,3.4-6.3,3.1-9.1c-0.3-2.8-2-5.8-5.1-8.9c-3.2-3.3-6.3-5.1-9.5-5.7c-2-0.3-3.7,0.2-5.2,1.6
		c-1.3,1.3-1.9,2.9-1.7,5c0.2,2.6,2.3,7.2,6.4,13.9c4,6.7,6.7,12,7.8,16c1.2,4,1.3,7.8,0.4,11.6c-0.9,3.8-3.2,7.4-6.7,10.9
		c-3.2,3.1-7,5.1-11.5,6.1s-9,0.5-13.5-1.4s-9.1-5.3-13.8-10.1c-6.9-7-10.5-14-10.9-20.9C305.1,1457.3,307.6,1450.4,313.1,1443.6z"
		/>
	<path class="st2" d="M363.5,1525.6l39.2-51.2l-18.3-14l8-10.4l49,37.5l-8,10.4l-18.2-14l-39.2,51.2L363.5,1525.6z"/>
	<path class="st2" d="M453.9,1584.2l-14.7-8.6l3.1-18.6l-26.7-15.7l-14.5,11.9l-14.3-8.4l65.4-51.5l14.3,8.4L453.9,1584.2z
		 M444.6,1543.1l5.4-30.2l-23.6,19.5L444.6,1543.1z"/>
	<path class="st2" d="M459.3,1585.9l29.6-71.1l14.5,6l-24.6,59l36,15l-5,12.1L459.3,1585.9z"/>
	<path class="st2" d="M520.9,1570.8c2-7.6,4.8-13.8,8.5-18.4c2.7-3.4,5.9-6.2,9.7-8.5s7.6-3.7,11.5-4.2c5.2-0.8,10.8-0.3,17,1.3
		c11.1,2.9,19,8.7,23.8,17.3c4.8,8.6,5.7,19,2.4,31.2c-3.2,12.1-9,20.7-17.4,25.8c-8.4,5.1-18.1,6.2-29.1,3.3
		c-11.2-2.9-19.1-8.7-23.9-17.2C518.5,1593,517.7,1582.7,520.9,1570.8z M536.6,1574.4c-2.2,8.5-2,15.5,0.8,20.9s7.2,8.9,13.2,10.5
		s11.6,0.7,16.6-2.6c5-3.3,8.7-9.4,11-18.1c2.3-8.6,2.1-15.5-0.6-20.7c-2.7-5.2-7.1-8.7-13.4-10.3c-6.2-1.6-11.8-0.8-16.8,2.5
		C542.5,1559.8,538.9,1565.7,536.6,1574.4z"/>
	<path class="st2" d="M612.8,1631.1l-13.4-78.7l16,1.1l8.2,54l17.7-52.3l18.6,1.2l10,55l15.5-53.3l15.7,1l-23.9,76.2l-16.6-1.1
		l-11.6-58.9l-19.2,56.9L612.8,1631.1z"/>
	<path class="st2" d="M768.7,1628.9l-17,1.5l-8.3-17l-30.9,2.7l-4.8,18.1l-16.6,1.5l23.3-80l16.5-1.5L768.7,1628.9z M737.2,1600.8
		l-13.2-27.7l-7.9,29.6L737.2,1600.8z"/>
	<path class="st2" d="M806.2,1620.9l-40.7-68.6l15.3-4.7l27,47.5l-2.2-55.1l17.8-5.5l29,47.8l-4.7-55.3l15.1-4.7l5,79.7l-15.9,4.9
		l-31.9-50.8l2.5,60L806.2,1620.9z"/>
	<path class="st2" d="M876.3,1557.4c-3.8-6.9-5.9-13.3-6.4-19.2c-0.3-4.3,0.1-8.6,1.3-12.8c1.2-4.2,3-7.9,5.5-10.9
		c3.3-4.1,7.7-7.7,13.2-10.7c10.1-5.5,19.8-6.7,29.2-3.7c9.4,3,17.1,10,23.2,21.1c6,11,7.7,21.3,5,30.7c-2.6,9.5-8.9,16.9-18.9,22.4
		c-10.1,5.5-19.9,6.8-29.2,3.8C889.8,1575.2,882.1,1568.3,876.3,1557.4z M890.2,1549.2c4.2,7.7,9.2,12.6,14.9,14.7
		c5.7,2.1,11.3,1.6,16.8-1.4s8.9-7.4,10.3-13.3s-0.1-12.8-4.4-20.7c-4.2-7.8-9.1-12.7-14.6-14.7s-11.1-1.4-16.8,1.6
		s-9.2,7.5-10.6,13.3C884.5,1534.6,885.9,1541.4,890.2,1549.2z"/>
	<path class="st2" d="M972.4,1546.4l-46.6-61.3l12.5-9.5l38.7,50.9l31-23.6l7.9,10.4L972.4,1546.4z"/>
	<path class="st2" d="M1073.7,1455.5l-11.9,12.2l-17.4-7.4l-21.6,22.2l8.2,16.9l-11.6,11.9l-34.6-75.8l11.5-11.9L1073.7,1455.5z
		 M1031.6,1454.8l-28.1-12.4l13.3,27.6L1031.6,1454.8z"/>
</g>
</svg>
