<?xml version="1.0" encoding="utf-8"?>
<!-- Generator: Adobe Illustrator 23.1.0, SVG Export Plug-In . SVG Version: 6.00 Build 0)  -->
<svg version="1.1" id="Layer_1" xmlns="http://www.w3.org/2000/svg" xmlns:xlink="http://www.w3.org/1999/xlink" x="0px" y="0px"
	 viewBox="0 0 724.2 317.2" style="enable-background:new 0 0 724.2 317.2;" xml:space="preserve">
<style type="text/css">
	.st0{fill:url(#SVGID_1_);}
	.st1{fill:url(#path3049_1_);}
	.st2{fill:url(#SVGID_2_);}
	.st3{fill:url(#SVGID_3_);}
	.st4{fill:url(#SVGID_4_);}
	.st5{fill:url(#path3085_1_);}
	.st6{fill:url(#SVGID_5_);}
</style>
<linearGradient id="SVGID_1_" gradientUnits="userSpaceOnUse" x1="282.757" y1="243.4339" x2="625.0973" y2="243.4339" gradientTransform="matrix(0.9157 -0.4019 0.4019 0.9157 -308.1849 257.5252)">
	<stop  offset="0" style="stop-color:#FFFFFF"/>
	<stop  offset="1" style="stop-color:#36A9E1"/>
</linearGradient>
<polygon class="st0" points="340.3,179.6 153.6,269.2 301.2,222.9 296.6,317.2 "/>
<linearGradient id="path3049_1_" gradientUnits="userSpaceOnUse" x1="447.1278" y1="-123.8674" x2="659.0922" y2="-123.8674" gradientTransform="matrix(-0.5864 0.81 -0.81 -0.5864 575.7247 -294.3834)">
	<stop  offset="0" style="stop-color:#FFFFFF"/>
	<stop  offset="1" style="stop-color:#36A9E1"/>
</linearGradient>
<path id="path3049" class="st1" d="M376.3,265.5l-79.8,51.7l4.6-94.3L381.6,117L376.3,265.5z"/>
<linearGradient id="SVGID_2_" gradientUnits="userSpaceOnUse" x1="295.91" y1="-54.6875" x2="363.7466" y2="-54.6875" gradientTransform="matrix(-0.9997 2.580000e-02 -2.580000e-02 -0.9997 736.7665 131.6782)">
	<stop  offset="0" style="stop-color:#FFFFFF"/>
	<stop  offset="1" style="stop-color:#36A9E1"/>
</linearGradient>
<path class="st2" d="M389.4,208.8l55.5,80.7L413.4,99.1l-24.2,108.5C389.3,208,389.4,208.4,389.4,208.8z"/>
<linearGradient id="SVGID_3_" gradientUnits="userSpaceOnUse" x1="429.5485" y1="386.2198" x2="755.8007" y2="386.2198" gradientTransform="matrix(0.7771 -0.6294 0.6294 0.7771 -174.1631 298.162)">
	<stop  offset="0" style="stop-color:#FFFFFF"/>
	<stop  offset="1" style="stop-color:#36A9E1"/>
</linearGradient>
<polygon class="st3" points="587.7,117.3 509.4,102.5 724.2,206.5 "/>
<linearGradient id="SVGID_4_" gradientUnits="userSpaceOnUse" x1="357.6849" y1="149.704" x2="788.2519" y2="149.704" gradientTransform="matrix(0.7771 -0.6294 0.6294 0.7771 -174.1631 298.162)">
	<stop  offset="0" style="stop-color:#FFFFFF"/>
	<stop  offset="1" style="stop-color:#36A9E1"/>
</linearGradient>
<polygon class="st4" points="178.9,39.5 509.4,102.5 306,4.1 "/>
<linearGradient id="path3085_1_" gradientUnits="userSpaceOnUse" x1="275.6642" y1="98.0054" x2="294.6255" y2="98.0054" gradientTransform="matrix(-0.9878 0.156 -0.156 -0.9878 729.1189 64.1845)">
	<stop  offset="0" style="stop-color:#FFFFFF"/>
	<stop  offset="1" style="stop-color:#36A9E1"/>
</linearGradient>
<path id="path3085" class="st5" d="M431.3,17.8l-9.3-10l19.3,0.6L431.3,17.8z"/>
<linearGradient id="SVGID_5_" gradientUnits="userSpaceOnUse" x1="213.7324" y1="-7.9625" x2="1367.2551" y2="-7.9625" gradientTransform="matrix(-0.8921 0.4518 -0.4518 -0.8921 712.0847 -91.4466)">
	<stop  offset="0" style="stop-color:#FFFFFF"/>
	<stop  offset="1" style="stop-color:#36A9E1"/>
</linearGradient>
<polygon class="st6" points="518.8,0 465.6,11.3 0,309.1 "/>
</svg>
