<?xml version="1.0" encoding="utf-8"?>
<!-- Generator: Adobe Illustrator 23.1.0, SVG Export Plug-In . SVG Version: 6.00 Build 0)  -->
<svg version="1.1" id="Layer_1" xmlns="http://www.w3.org/2000/svg" xmlns:xlink="http://www.w3.org/1999/xlink" x="0px" y="0px"
	 viewBox="0 0 299.9 299.9" style="enable-background:new 0 0 299.9 299.9;" xml:space="preserve">
<style type="text/css">
	.st0{fill:none;stroke:#959595;stroke-width:4;stroke-linecap:round;stroke-linejoin:round;}
	.st1{fill:none;stroke:#959595;stroke-width:2;stroke-linecap:round;stroke-linejoin:round;}
	.st2{fill:none;stroke:#F39100;stroke-width:4;stroke-linecap:round;stroke-linejoin:round;}
</style>
<g>
	<path class="st0" d="M261.7,231.3V261c0,9.4-7.6,17-17,17H42c-9.4,0-17-7.6-17-17V139.8c0-9.4,7.6-17,17-17h110.6"/>
	<path class="st0" d="M244.7,122.8c9.4,0,17,7.6,17,17v66.6"/>
	<path class="st0" d="M213.4,219.9h11.9c6.6,0,12,5.4,12,12v11.9c0,6.6-5.4,12-12,12h-11.9c-6.6,0-12-5.4-12-12v-11.9
		C201.4,225.3,206.8,219.9,213.4,219.9z"/>
	<line class="st0" x1="46.3" y1="227.7" x2="139.8" y2="227.7"/>
	<line class="st0" x1="46.3" y1="248" x2="139.8" y2="248"/>
	<line class="st1" x1="25" y1="147.8" x2="127.1" y2="147.8"/>
	<line class="st1" x1="25" y1="175.3" x2="124" y2="175.3"/>
	<line class="st1" x1="226.4" y1="147.8" x2="259.9" y2="147.8"/>
	<line class="st1" x1="197" y1="175.3" x2="259.9" y2="175.3"/>
	<line class="st2" x1="217.1" y1="127.1" x2="186.5" y2="103.8"/>
	<line class="st2" x1="177.7" y1="119.7" x2="204.2" y2="139.9"/>
	<path class="st2" d="M175.8,188.2c-15.6,20.4-47.8,12.1-47.8,12.1c7.9-7.8,11.6-18.9,9.8-29.8c-2.3-15.9,17.6-33,36-19
		C186.7,161.4,184.6,176.7,175.8,188.2z"/>
	<path class="st2" d="M173.8,151.5c2,1.5,3.7,3.2,5.1,5.2c13.4-4,36.9-25.2,59.2-54.4c28-36.8,43.3-72.2,34.1-79.2
		S232.9,40.2,204.9,77c-22.1,29-36.2,57.2-36.7,71.2C170.2,149.1,172.1,150.2,173.8,151.5z"/>
	<path class="st2" d="M168.5,184.8c4.5-5.9,6.6-13,4.6-19.3"/>
</g>
</svg>
