<?xml version="1.0" encoding="utf-8"?>
<!-- Generator: Adobe Illustrator 23.1.0, SVG Export Plug-In . SVG Version: 6.00 Build 0)  -->
<svg version="1.1" id="Layer_1" xmlns="http://www.w3.org/2000/svg" xmlns:xlink="http://www.w3.org/1999/xlink" x="0px" y="0px"
	 viewBox="0 0 84.8 136.5" style="enable-background:new 0 0 84.8 136.5;" xml:space="preserve">
<style type="text/css">
	.st0{fill:#EAEAEA;}
</style>
<polygon class="st0" points="0.5,0 35.7,100.9 84.8,0 "/>
</svg>
