
        <svg version="1.1" class="" xmlns="http://www.w3.org/2000/svg" xmlns:xlink="http://www.w3.org/1999/xlink" x="0px" y="0px" viewBox="0 0 360 1054" style="enable-background:new 0 0 360 1054;" xml:space="preserve">
          <style type="text/css">
            .right {
              fill-rule: evenodd;
              clip-rule: evenodd;
              fill: url(#right);
            }
          </style>
          <linearGradient id="right" gradientUnits="userSpaceOnUse" x1="96" y1="185.1053" x2="360" y2="185.1053">
            <stop offset="0" style="stop-color:#FFFFFF" />
            <stop offset="1" style="stop-color:#36A9E1" />
          </linearGradient>
          <polygon class="right" points="360,289.1 96,81.1 360,192.1 " />
        </svg>