<?xml version="1.0" encoding="utf-8"?>
<!-- Generator: Adobe Illustrator 23.1.0, SVG Export Plug-In . SVG Version: 6.00 Build 0)  -->
<svg version="1.1" id="Layer_1" xmlns="http://www.w3.org/2000/svg" xmlns:xlink="http://www.w3.org/1999/xlink" x="0px" y="0px"
	 viewBox="0 0 141 141" style="enable-background:new 0 0 141 141;" xml:space="preserve">
<style type="text/css">
	.st0{fill:#1B06EF;}
</style>
<g>
	<path class="st0" d="M70.5,6C106.1,6,135,34.9,135,70.5S106.1,135,70.5,135S6,106.1,6,70.5S34.9,6,70.5,6 M70.5,0
		C31.6,0,0,31.6,0,70.5S31.6,141,70.5,141S141,109.4,141,70.5S109.4,0,70.5,0L70.5,0z"/>
</g>
<g>
	<path class="st0" d="M40.3,80.2v5.1H23.2v-5.1h4.6V63.9l-3.4,1.9l-2.7-4.7l9-5.5h5.1v24.6H40.3z"/>
	<path class="st0" d="M67.6,59.1c2,2.7,2.9,6.5,2.9,11.4c0,4.9-1,8.6-2.9,11.4c-1.9,2.7-5,4.1-9.1,4.1c-4.1,0-7.1-1.4-9.1-4.1
		c-2-2.7-3-6.5-3-11.4c0-4.9,1-8.6,2.9-11.4c2-2.7,5-4.1,9.1-4.1C62.6,55.1,65.6,56.4,67.6,59.1z M61.2,77.7
		c0.5-1.4,0.8-3.8,0.8-7.2c0-3.4-0.3-5.8-0.8-7.2c-0.5-1.4-1.4-2.1-2.7-2.1c-1.3,0-2.2,0.7-2.7,2.1c-0.5,1.4-0.8,3.8-0.8,7.2
		c0,3.4,0.3,5.7,0.8,7.1c0.5,1.4,1.5,2.1,2.7,2.1C59.8,79.8,60.7,79.1,61.2,77.7z"/>
	<path class="st0" d="M95.3,59.1c2,2.7,2.9,6.5,2.9,11.4c0,4.9-1,8.6-2.9,11.4c-1.9,2.7-5,4.1-9.1,4.1c-4.1,0-7.1-1.4-9.1-4.1
		c-2-2.7-3-6.5-3-11.4c0-4.9,1-8.6,2.9-11.4c2-2.7,5-4.1,9.1-4.1C90.3,55.1,93.3,56.4,95.3,59.1z M88.9,77.7
		c0.5-1.4,0.8-3.8,0.8-7.2c0-3.4-0.3-5.8-0.8-7.2c-0.5-1.4-1.4-2.1-2.7-2.1c-1.3,0-2.2,0.7-2.7,2.1c-0.5,1.4-0.8,3.8-0.8,7.2
		c0,3.4,0.3,5.7,0.8,7.1c0.5,1.4,1.5,2.1,2.8,2.1C87.5,79.8,88.4,79.1,88.9,77.7z"/>
	<path class="st0" d="M105.6,82.6h5.3l-0.2,2.8h-9.6v-2l4.8-6.8h-4.8v-2.8h9.3v2.1L105.6,82.6z"/>
	<path class="st0" d="M119.4,73.7v3.2l-2.2,0.8v4.6c0,0.4,0.2,0.6,0.6,0.6c0.4,0,0.7-0.1,1-0.3l-0.1,2.2c-0.7,0.5-1.6,0.7-2.6,0.7
		c-1.2,0-2-0.3-2.4-1c-0.3-0.4-0.4-1.1-0.4-1.9V79l-2.2,0.7v-3.2l2.2-0.7v-4.1h-1.4V69h5.4v5.5L119.4,73.7z"/>
</g>
</svg>
